a9/cpu.vcd
$date
	Sun Apr 19 23:55:18 2015
$end
$version
	Icarus Verilog
$end
$timescale
	1ps
$end
$scope module main $end
$var wire 16 ! d_inst [15:0] $end
$var wire 4 " rt [3:0] $end
$var wire 4 # rb [3:0] $end
$var wire 4 $ ra [3:0] $end
$var wire 1 % queue_full $end
$var wire 1 & queue_empty $end
$var wire 1 ' push_enable $end
$var wire 16 ( popped_value [15:0] $end
$var wire 1 ) pop_enable $end
$var wire 4 * opcode [3:0] $end
$var wire 1 + loadReady $end
$var wire 16 , loadOut [15:0] $end
$var wire 16 - jjj [15:0] $end
$var wire 16 . ii [15:0] $end
$var wire 1 / fetchReady $end
$var wire 16 0 fetchOut [15:0] $end
$var wire 1 1 cycle $end
$var wire 1 2 clk $end
$var reg 6 3 add_state [5:0] $end
$var reg 6 4 decode_state [5:0] $end
$var reg 6 5 fetch_state [5:0] $end
$var reg 16 6 load_out [15:0] $end
$var reg 16 7 load_reg [15:0] $end
$var reg 6 8 load_state [5:0] $end
$var reg 6 9 move_state [5:0] $end
$var reg 16 : pc [15:0] $end
$var reg 16 ; res [15:0] $end
$var integer 32 < i [31:0] $end
$upscope $end
$scope module main $end
$scope module i0 $end
$var wire 1 2 clk $end
$var wire 16 = fetchAddr [15:0] $end
$var wire 1 > fetchEnable $end
$var wire 16 ? loadAddr [15:0] $end
$var wire 1 @ loadEnable $end
$var wire 1 + loadReady $end
$var wire 16 A loadData [15:0] $end
$var wire 1 / fetchReady $end
$var wire 16 B fetchData [15:0] $end
$var reg 16 C fetchCounter [15:0] $end
$var reg 16 D fetchPtr [15:0] $end
$var reg 16 E loadCounter [15:0] $end
$var reg 16 F loadPtr [15:0] $end
$upscope $end
$upscope $end
$scope module main $end
$scope module fetch_queue $end
$var wire 1 2 clk $end
$var wire 1 & isEmpty $end
$var wire 1 ) pop_enable $end
$var wire 1 ' push_enable $end
$var wire 1 G q5 $end
$var wire 1 H q4 $end
$var wire 1 I q3 $end
$var wire 1 J q2 $end
$var wire 1 K q1 $end
$var wire 1 L q0 $end
$var wire 16 M push_value [15:0] $end
$var wire 1 % isFull $end
$var reg 17 N f_buff0 [16:0] $end
$var reg 17 O f_buff1 [16:0] $end
$var reg 17 P f_buff2 [16:0] $end
$var reg 17 Q f_buff3 [16:0] $end
$var reg 17 R f_buff4 [16:0] $end
$var reg 17 S f_buff5 [16:0] $end
$var reg 16 T head [15:0] $end
$var reg 16 U tail [15:0] $end
$var reg 16 V value [15:0] $end
$upscope $end
$upscope $end
$scope module main $end
$var reg 16 W \regs[0] [15:0] $end
$upscope $end
$scope module main $end
$var reg 16 X \regs_src[0] [15:0] $end
$upscope $end
$scope module main $end
$var reg 1 Y \regs_busy[0] $end
$upscope $end
$scope module main $end
$var reg 16 Z \regs[1] [15:0] $end
$upscope $end
$scope module main $end
$var reg 16 [ \regs_src[1] [15:0] $end
$upscope $end
$scope module main $end
$var reg 1 \ \regs_busy[1] $end
$upscope $end
$scope module main $end
$var reg 16 ] \regs[2] [15:0] $end
$upscope $end
$scope module main $end
$var reg 16 ^ \regs_src[2] [15:0] $end
$upscope $end
$scope module main $end
$var reg 1 _ \regs_busy[2] $end
$upscope $end
$scope module main $end
$var reg 16 ` \regs[3] [15:0] $end
$upscope $end
$scope module main $end
$var reg 16 a \regs_src[3] [15:0] $end
$upscope $end
$scope module main $end
$var reg 1 b \regs_busy[3] $end
$upscope $end
$scope module main $end
$var reg 16 c \regs[4] [15:0] $end
$upscope $end
$scope module main $end
$var reg 16 d \regs_src[4] [15:0] $end
$upscope $end
$scope module main $end
$var reg 1 e \regs_busy[4] $end
$upscope $end
$scope module main $end
$var reg 16 f \regs[5] [15:0] $end
$upscope $end
$scope module main $end
$var reg 16 g \regs_src[5] [15:0] $end
$upscope $end
$scope module main $end
$var reg 1 h \regs_busy[5] $end
$upscope $end
$scope module main $end
$var reg 16 i \regs[6] [15:0] $end
$upscope $end
$scope module main $end
$var reg 16 j \regs_src[6] [15:0] $end
$upscope $end
$scope module main $end
$var reg 1 k \regs_busy[6] $end
$upscope $end
$scope module main $end
$var reg 16 l \regs[7] [15:0] $end
$upscope $end
$scope module main $end
$var reg 16 m \regs_src[7] [15:0] $end
$upscope $end
$scope module main $end
$var reg 1 n \regs_busy[7] $end
$upscope $end
$scope module main $end
$var reg 16 o \regs[8] [15:0] $end
$upscope $end
$scope module main $end
$var reg 16 p \regs_src[8] [15:0] $end
$upscope $end
$scope module main $end
$var reg 1 q \regs_busy[8] $end
$upscope $end
$scope module main $end
$var reg 16 r \regs[9] [15:0] $end
$upscope $end
$scope module main $end
$var reg 16 s \regs_src[9] [15:0] $end
$upscope $end
$scope module main $end
$var reg 1 t \regs_busy[9] $end
$upscope $end
$scope module main $end
$var reg 16 u \regs[10] [15:0] $end
$upscope $end
$scope module main $end
$var reg 16 v \regs_src[10] [15:0] $end
$upscope $end
$scope module main $end
$var reg 1 w \regs_busy[10] $end
$upscope $end
$scope module main $end
$var reg 16 x \regs[11] [15:0] $end
$upscope $end
$scope module main $end
$var reg 16 y \regs_src[11] [15:0] $end
$upscope $end
$scope module main $end
$var reg 1 z \regs_busy[11] $end
$upscope $end
$scope module main $end
$var reg 16 { \regs[12] [15:0] $end
$upscope $end
$scope module main $end
$var reg 16 | \regs_src[12] [15:0] $end
$upscope $end
$scope module main $end
$var reg 1 } \regs_busy[12] $end
$upscope $end
$scope module main $end
$var reg 16 ~ \regs[13] [15:0] $end
$upscope $end
$scope module main $end
$var reg 16 !" \regs_src[13] [15:0] $end
$upscope $end
$scope module main $end
$var reg 1 "" \regs_busy[13] $end
$upscope $end
$scope module main $end
$var reg 16 #" \regs[14] [15:0] $end
$upscope $end
$scope module main $end
$var reg 16 $" \regs_src[14] [15:0] $end
$upscope $end
$scope module main $end
$var reg 1 %" \regs_busy[14] $end
$upscope $end
$scope module main $end
$var reg 16 &" \regs[15] [15:0] $end
$upscope $end
$scope module main $end
$var reg 16 '" \regs_src[15] [15:0] $end
$upscope $end
$scope module main $end
$var reg 1 (" \regs_busy[15] $end
$upscope $end
$scope module main $end
$var reg 16 )" \r_mov0[0] [15:0] $end
$upscope $end
$scope module main $end
$var reg 16 *" \r_mov1[0] [15:0] $end
$upscope $end
$scope module main $end
$var reg 16 +" \r_mov2[0] [15:0] $end
$upscope $end
$scope module main $end
$var reg 16 ," \r_mov3[0] [15:0] $end
$upscope $end
$scope module main $end
$var reg 16 -" \r_add0[0] [15:0] $end
$upscope $end
$scope module main $end
$var reg 16 ." \r_add1[0] [15:0] $end
$upscope $end
$scope module main $end
$var reg 16 /" \r_add2[0] [15:0] $end
$upscope $end
$scope module main $end
$var reg 16 0" \r_add3[0] [15:0] $end
$upscope $end
$scope module main $end
$var reg 16 1" \r_ld0[0] [15:0] $end
$upscope $end
$scope module main $end
$var reg 16 2" \r_ld1[0] [15:0] $end
$upscope $end
$scope module main $end
$var reg 16 3" \r_ld2[0] [15:0] $end
$upscope $end
$scope module main $end
$var reg 16 4" \r_ld3[0] [15:0] $end
$upscope $end
$scope module main $end
$var reg 16 5" \r_ldr0[0] [15:0] $end
$upscope $end
$scope module main $end
$var reg 16 6" \r_ldr1[0] [15:0] $end
$upscope $end
$scope module main $end
$var reg 16 7" \r_ldr2[0] [15:0] $end
$upscope $end
$scope module main $end
$var reg 16 8" \r_ldr3[0] [15:0] $end
$upscope $end
$scope module main $end
$var reg 16 9" \r_mov0[1] [15:0] $end
$upscope $end
$scope module main $end
$var reg 16 :" \r_mov1[1] [15:0] $end
$upscope $end
$scope module main $end
$var reg 16 ;" \r_mov2[1] [15:0] $end
$upscope $end
$scope module main $end
$var reg 16 <" \r_mov3[1] [15:0] $end
$upscope $end
$scope module main $end
$var reg 16 =" \r_add0[1] [15:0] $end
$upscope $end
$scope module main $end
$var reg 16 >" \r_add1[1] [15:0] $end
$upscope $end
$scope module main $end
$var reg 16 ?" \r_add2[1] [15:0] $end
$upscope $end
$scope module main $end
$var reg 16 @" \r_add3[1] [15:0] $end
$upscope $end
$scope module main $end
$var reg 16 A" \r_ld0[1] [15:0] $end
$upscope $end
$scope module main $end
$var reg 16 B" \r_ld1[1] [15:0] $end
$upscope $end
$scope module main $end
$var reg 16 C" \r_ld2[1] [15:0] $end
$upscope $end
$scope module main $end
$var reg 16 D" \r_ld3[1] [15:0] $end
$upscope $end
$scope module main $end
$var reg 16 E" \r_ldr0[1] [15:0] $end
$upscope $end
$scope module main $end
$var reg 16 F" \r_ldr1[1] [15:0] $end
$upscope $end
$scope module main $end
$var reg 16 G" \r_ldr2[1] [15:0] $end
$upscope $end
$scope module main $end
$var reg 16 H" \r_ldr3[1] [15:0] $end
$upscope $end
$scope module main $end
$var reg 16 I" \r_mov0[2] [15:0] $end
$upscope $end
$scope module main $end
$var reg 16 J" \r_mov1[2] [15:0] $end
$upscope $end
$scope module main $end
$var reg 16 K" \r_mov2[2] [15:0] $end
$upscope $end
$scope module main $end
$var reg 16 L" \r_mov3[2] [15:0] $end
$upscope $end
$scope module main $end
$var reg 16 M" \r_add0[2] [15:0] $end
$upscope $end
$scope module main $end
$var reg 16 N" \r_add1[2] [15:0] $end
$upscope $end
$scope module main $end
$var reg 16 O" \r_add2[2] [15:0] $end
$upscope $end
$scope module main $end
$var reg 16 P" \r_add3[2] [15:0] $end
$upscope $end
$scope module main $end
$var reg 16 Q" \r_ld0[2] [15:0] $end
$upscope $end
$scope module main $end
$var reg 16 R" \r_ld1[2] [15:0] $end
$upscope $end
$scope module main $end
$var reg 16 S" \r_ld2[2] [15:0] $end
$upscope $end
$scope module main $end
$var reg 16 T" \r_ld3[2] [15:0] $end
$upscope $end
$scope module main $end
$var reg 16 U" \r_ldr0[2] [15:0] $end
$upscope $end
$scope module main $end
$var reg 16 V" \r_ldr1[2] [15:0] $end
$upscope $end
$scope module main $end
$var reg 16 W" \r_ldr2[2] [15:0] $end
$upscope $end
$scope module main $end
$var reg 16 X" \r_ldr3[2] [15:0] $end
$upscope $end
$scope module main $end
$var reg 16 Y" \r_mov0[3] [15:0] $end
$upscope $end
$scope module main $end
$var reg 16 Z" \r_mov1[3] [15:0] $end
$upscope $end
$scope module main $end
$var reg 16 [" \r_mov2[3] [15:0] $end
$upscope $end
$scope module main $end
$var reg 16 \" \r_mov3[3] [15:0] $end
$upscope $end
$scope module main $end
$var reg 16 ]" \r_add0[3] [15:0] $end
$upscope $end
$scope module main $end
$var reg 16 ^" \r_add1[3] [15:0] $end
$upscope $end
$scope module main $end
$var reg 16 _" \r_add2[3] [15:0] $end
$upscope $end
$scope module main $end
$var reg 16 `" \r_add3[3] [15:0] $end
$upscope $end
$scope module main $end
$var reg 16 a" \r_ld0[3] [15:0] $end
$upscope $end
$scope module main $end
$var reg 16 b" \r_ld1[3] [15:0] $end
$upscope $end
$scope module main $end
$var reg 16 c" \r_ld2[3] [15:0] $end
$upscope $end
$scope module main $end
$var reg 16 d" \r_ld3[3] [15:0] $end
$upscope $end
$scope module main $end
$var reg 16 e" \r_ldr0[3] [15:0] $end
$upscope $end
$scope module main $end
$var reg 16 f" \r_ldr1[3] [15:0] $end
$upscope $end
$scope module main $end
$var reg 16 g" \r_ldr2[3] [15:0] $end
$upscope $end
$scope module main $end
$var reg 16 h" \r_ldr3[3] [15:0] $end
$upscope $end
$scope module main $end
$var reg 16 i" \r_mov0[4] [15:0] $end
$upscope $end
$scope module main $end
$var reg 16 j" \r_mov1[4] [15:0] $end
$upscope $end
$scope module main $end
$var reg 16 k" \r_mov2[4] [15:0] $end
$upscope $end
$scope module main $end
$var reg 16 l" \r_mov3[4] [15:0] $end
$upscope $end
$scope module main $end
$var reg 16 m" \r_add0[4] [15:0] $end
$upscope $end
$scope module main $end
$var reg 16 n" \r_add1[4] [15:0] $end
$upscope $end
$scope module main $end
$var reg 16 o" \r_add2[4] [15:0] $end
$upscope $end
$scope module main $end
$var reg 16 p" \r_add3[4] [15:0] $end
$upscope $end
$scope module main $end
$var reg 16 q" \r_ld0[4] [15:0] $end
$upscope $end
$scope module main $end
$var reg 16 r" \r_ld1[4] [15:0] $end
$upscope $end
$scope module main $end
$var reg 16 s" \r_ld2[4] [15:0] $end
$upscope $end
$scope module main $end
$var reg 16 t" \r_ld3[4] [15:0] $end
$upscope $end
$scope module main $end
$var reg 16 u" \r_ldr0[4] [15:0] $end
$upscope $end
$scope module main $end
$var reg 16 v" \r_ldr1[4] [15:0] $end
$upscope $end
$scope module main $end
$var reg 16 w" \r_ldr2[4] [15:0] $end
$upscope $end
$scope module main $end
$var reg 16 x" \r_ldr3[4] [15:0] $end
$upscope $end
$scope module main $end
$var reg 16 y" \r_mov0[5] [15:0] $end
$upscope $end
$scope module main $end
$var reg 16 z" \r_mov1[5] [15:0] $end
$upscope $end
$scope module main $end
$var reg 16 {" \r_mov2[5] [15:0] $end
$upscope $end
$scope module main $end
$var reg 16 |" \r_mov3[5] [15:0] $end
$upscope $end
$scope module main $end
$var reg 16 }" \r_add0[5] [15:0] $end
$upscope $end
$scope module main $end
$var reg 16 ~" \r_add1[5] [15:0] $end
$upscope $end
$scope module main $end
$var reg 16 !# \r_add2[5] [15:0] $end
$upscope $end
$scope module main $end
$var reg 16 "# \r_add3[5] [15:0] $end
$upscope $end
$scope module main $end
$var reg 16 ## \r_ld0[5] [15:0] $end
$upscope $end
$scope module main $end
$var reg 16 $# \r_ld1[5] [15:0] $end
$upscope $end
$scope module main $end
$var reg 16 %# \r_ld2[5] [15:0] $end
$upscope $end
$scope module main $end
$var reg 16 &# \r_ld3[5] [15:0] $end
$upscope $end
$scope module main $end
$var reg 16 '# \r_ldr0[5] [15:0] $end
$upscope $end
$scope module main $end
$var reg 16 (# \r_ldr1[5] [15:0] $end
$upscope $end
$scope module main $end
$var reg 16 )# \r_ldr2[5] [15:0] $end
$upscope $end
$scope module main $end
$var reg 16 *# \r_ldr3[5] [15:0] $end
$upscope $end
$scope module main $end
$var reg 16 +# \r_mov0[6] [15:0] $end
$upscope $end
$scope module main $end
$var reg 16 ,# \r_mov1[6] [15:0] $end
$upscope $end
$scope module main $end
$var reg 16 -# \r_mov2[6] [15:0] $end
$upscope $end
$scope module main $end
$var reg 16 .# \r_mov3[6] [15:0] $end
$upscope $end
$scope module main $end
$var reg 16 /# \r_add0[6] [15:0] $end
$upscope $end
$scope module main $end
$var reg 16 0# \r_add1[6] [15:0] $end
$upscope $end
$scope module main $end
$var reg 16 1# \r_add2[6] [15:0] $end
$upscope $end
$scope module main $end
$var reg 16 2# \r_add3[6] [15:0] $end
$upscope $end
$scope module main $end
$var reg 16 3# \r_ld0[6] [15:0] $end
$upscope $end
$scope module main $end
$var reg 16 4# \r_ld1[6] [15:0] $end
$upscope $end
$scope module main $end
$var reg 16 5# \r_ld2[6] [15:0] $end
$upscope $end
$scope module main $end
$var reg 16 6# \r_ld3[6] [15:0] $end
$upscope $end
$scope module main $end
$var reg 16 7# \r_ldr0[6] [15:0] $end
$upscope $end
$scope module main $end
$var reg 16 8# \r_ldr1[6] [15:0] $end
$upscope $end
$scope module main $end
$var reg 16 9# \r_ldr2[6] [15:0] $end
$upscope $end
$scope module main $end
$var reg 16 :# \r_ldr3[6] [15:0] $end
$upscope $end
$scope module main $end
$var reg 16 ;# \r_mov0[7] [15:0] $end
$upscope $end
$scope module main $end
$var reg 16 <# \r_mov1[7] [15:0] $end
$upscope $end
$scope module main $end
$var reg 16 =# \r_mov2[7] [15:0] $end
$upscope $end
$scope module main $end
$var reg 16 ># \r_mov3[7] [15:0] $end
$upscope $end
$scope module main $end
$var reg 16 ?# \r_add0[7] [15:0] $end
$upscope $end
$scope module main $end
$var reg 16 @# \r_add1[7] [15:0] $end
$upscope $end
$scope module main $end
$var reg 16 A# \r_add2[7] [15:0] $end
$upscope $end
$scope module main $end
$var reg 16 B# \r_add3[7] [15:0] $end
$upscope $end
$scope module main $end
$var reg 16 C# \r_ld0[7] [15:0] $end
$upscope $end
$scope module main $end
$var reg 16 D# \r_ld1[7] [15:0] $end
$upscope $end
$scope module main $end
$var reg 16 E# \r_ld2[7] [15:0] $end
$upscope $end
$scope module main $end
$var reg 16 F# \r_ld3[7] [15:0] $end
$upscope $end
$scope module main $end
$var reg 16 G# \r_ldr0[7] [15:0] $end
$upscope $end
$scope module main $end
$var reg 16 H# \r_ldr1[7] [15:0] $end
$upscope $end
$scope module main $end
$var reg 16 I# \r_ldr2[7] [15:0] $end
$upscope $end
$scope module main $end
$var reg 16 J# \r_ldr3[7] [15:0] $end
$upscope $end
$scope module main $end
$var reg 16 K# \r_mov0[8] [15:0] $end
$upscope $end
$scope module main $end
$var reg 16 L# \r_mov1[8] [15:0] $end
$upscope $end
$scope module main $end
$var reg 16 M# \r_mov2[8] [15:0] $end
$upscope $end
$scope module main $end
$var reg 16 N# \r_mov3[8] [15:0] $end
$upscope $end
$scope module main $end
$var reg 16 O# \r_add0[8] [15:0] $end
$upscope $end
$scope module main $end
$var reg 16 P# \r_add1[8] [15:0] $end
$upscope $end
$scope module main $end
$var reg 16 Q# \r_add2[8] [15:0] $end
$upscope $end
$scope module main $end
$var reg 16 R# \r_add3[8] [15:0] $end
$upscope $end
$scope module main $end
$var reg 16 S# \r_ld0[8] [15:0] $end
$upscope $end
$scope module main $end
$var reg 16 T# \r_ld1[8] [15:0] $end
$upscope $end
$scope module main $end
$var reg 16 U# \r_ld2[8] [15:0] $end
$upscope $end
$scope module main $end
$var reg 16 V# \r_ld3[8] [15:0] $end
$upscope $end
$scope module main $end
$var reg 16 W# \r_ldr0[8] [15:0] $end
$upscope $end
$scope module main $end
$var reg 16 X# \r_ldr1[8] [15:0] $end
$upscope $end
$scope module main $end
$var reg 16 Y# \r_ldr2[8] [15:0] $end
$upscope $end
$scope module main $end
$var reg 16 Z# \r_ldr3[8] [15:0] $end
$upscope $end
$enddefinitions $end
#0
$dumpvars
bx Z#
bx Y#
bx X#
bx W#
bx V#
bx U#
bx T#
bx S#
bx R#
bx Q#
bx P#
bx O#
bx N#
bx M#
bx L#
bx K#
bx J#
bx I#
bx H#
bx G#
bx F#
bx E#
bx D#
bx C#
bx B#
bx A#
bx @#
bx ?#
bx >#
bx =#
bx <#
bx ;#
bx :#
bx 9#
bx 8#
bx 7#
bx 6#
bx 5#
bx 4#
bx 3#
bx 2#
bx 1#
bx 0#
bx /#
bx .#
bx -#
bx ,#
bx +#
bx *#
bx )#
bx (#
bx '#
bx &#
bx %#
bx $#
bx ##
bx "#
bx !#
bx ~"
bx }"
bx |"
bx {"
bx z"
bx y"
bx x"
bx w"
bx v"
bx u"
bx t"
bx s"
bx r"
bx q"
bx p"
bx o"
bx n"
bx m"
bx l"
bx k"
bx j"
bx i"
bx h"
bx g"
bx f"
bx e"
bx d"
bx c"
bx b"
bx a"
bx `"
bx _"
bx ^"
bx ]"
bx \"
bx ["
bx Z"
bx Y"
bx X"
bx W"
bx V"
bx U"
bx T"
bx S"
bx R"
bx Q"
bx P"
bx O"
bx N"
bx M"
bx L"
bx K"
bx J"
bx I"
bx H"
bx G"
bx F"
bx E"
bx D"
bx C"
bx B"
bx A"
bx @"
bx ?"
bx >"
bx ="
bx <"
bx ;"
bx :"
bx 9"
b0 8"
b0 7"
b0 6"
b0 5"
b0 4"
b0 3"
b0 2"
b0 1"
b0 0"
b0 /"
b0 ."
b0 -"
b0 ,"
b0 +"
b0 *"
b0 )"
0("
bx '"
bx &"
0%"
bx $"
bx #"
0""
bx !"
bx ~
0}
bx |
bx {
0z
bx y
bx x
0w
bx v
bx u
0t
bx s
bx r
0q
bx p
bx o
0n
bx m
bx l
0k
bx j
bx i
0h
bx g
bx f
0e
bx d
bx c
0b
bx a
bx `
0_
bx ^
bx ]
0\
bx [
bx Z
0Y
bx X
bx W
bx V
b0 U
b0 T
b0 S
b0 R
b0 Q
b0 P
b0 O
b0 N
bx M
0L
0K
0J
0I
0H
0G
bx F
b0 E
bx D
b0 C
bx B
bx A
0@
bx ?
1>
b0 =
b1001 <
bx ;
b0 :
b1101 9
b1000 8
bx 7
bx 6
b0 5
b100 4
b10000 3
12
01
bx 0
0/
b0xxxxxxxx .
b0xxxxxxxxxxxx -
bx ,
0+
bx *
0)
bx (
0'
1&
0%
bx $
bx #
bx "
bx !
$end
#500
02
#1000
1'
11
b100000000000000 0
b100000000000000 B
b100000000000000 M
1/
b1 C
b0 D
b101 4
b1110 9
b1 :
b1 =
0>
b1 5
12
#1500
02
#2000
0'
bx 0
bx B
bx M
1L
0&
01
b110 4
b1101 9
b10 5
0/
b0 C
b10100000000000000 N
b1 T
12
#2500
02
#3000
1)
11
bx D
b100 4
b1110 9
1>
b0 5
12
#3500
02
#4000
1'
0)
b100000000010000 0
b100000000010000 B
b100000000010000 M
b0 *
b0 .
b0 -
b0 "
b0 #
b0 $
01
b101 4
b1101 9
b10 :
b10 =
0>
b1 5
1/
b1 C
b1 D
b0 !
b0 (
b0 V
b0 T
12
#4500
02
#5000
0'
11
1K
bx 0
bx B
bx M
b10100000000000000 O
b10100000000010000 N
b1 T
0/
b0 C
b110 4
b0 X
1Y
bx +#
b1 y"
bx Y"
b1 I"
b0 ;#
b0 i"
b0 K#
b0 9"
b1 )"
b1110 9
b10 5
12
#5500
02
#6000
1)
01
b100 4
b1101 9
1>
b0 5
bx D
12
#6500
02
#7000
1'
0)
11
0K
b100 *
b100000000100000 0
b100000000100000 B
b100000000100000 M
b0 O
b100000000000000 !
b100000000000000 (
b100000000000000 V
1/
b1 C
b10 D
b101 4
b1110 9
b0 )"
b0 W
b11 :
b11 =
0>
b1 5
b0 T
12
#7500
02
#8000
0'
bx 0
bx B
bx M
1K
01
b110 4
b0 S#
b0 3#
b1 ##
b0 a"
b1 Q"
b1 A"
b1 1"
b1101 9
b10 5
0/
b0 C
b10100000000010000 O
b10100000000100000 N
b1 T
12
#8500
02
#9000
1)
11
bx D
b100 4
1@
b1001 8
b0 7
b0 ;
b0 ?
b1110 9
1>
b0 5
12
#9500
02
#10000
1'
0)
b100000000110000 0
b100000000110000 B
b100000000110000 M
0K
b1 .
b10000 -
b1 #
01
b101 4
0@
b1010 8
b1101 9
b100 :
b100 =
0>
b1 5
b1100100 E
b0 F
1/
b1 C
b11 D
b0 O
b100000000010000 !
b100000000010000 (
b100000000010000 V
b0 T
12
#10500
02
#11000
0'
11
1K
bx 0
bx B
bx M
b10100000000100000 O
b10100000000110000 N
b1 T
0/
b0 C
b1100011 E
b110 4
b0 T#
b1 4#
b1 $#
b1 b"
b1 R"
b1 B"
b1 2"
b1110 9
b10 5
12
#11500
02
#12000
1)
01
b100 4
b1101 9
1>
b0 5
b1100010 E
bx D
12
#12500
02
#13000
1'
0)
11
0K
b10 .
b100000 -
b10 #
b100000001000000 0
b100000001000000 B
b100000001000000 M
b0 O
b100000000100000 !
b100000000100000 (
b100000000100000 V
1/
b1 C
b100 D
b1100001 E
b101 4
b1110 9
b101 :
b101 =
0>
b1 5
b0 T
12
#13500
02
#14000
0'
bx 0
bx B
bx M
1K
01
b110 4
b0 U#
b10 5#
b1 %#
b10 c"
b1 S"
b1 C"
b1 3"
b1101 9
b10 5
b1100000 E
0/
b0 C
b10100000000110000 O
b10100000001000000 N
b1 T
12
#14500
02
#15000
1)
11
bx D
b1011111 E
b100 4
b1110 9
1>
b0 5
12
#15500
02
#16000
1'
0)
b100000001010000 0
b100000001010000 B
b100000001010000 M
0K
b11 .
b110000 -
b11 #
01
b101 4
b1101 9
b110 :
b110 =
0>
b1 5
b1011110 E
1/
b1 C
b101 D
b0 O
b100000000110000 !
b100000000110000 (
b100000000110000 V
b0 T
12
#16500
02
#17000
0'
11
1K
bx 0
bx B
bx M
b10100000001000000 O
b10100000001010000 N
b1 T
0/
b0 C
b1011101 E
b110 4
b0 V#
b11 6#
b1 &#
b11 d"
b1 T"
b1 D"
b1 4"
b1110 9
b10 5
12
#17500
02
#18000
1)
01
b100 4
b1101 9
1>
b0 5
b1011100 E
bx D
12
#18500
02
#19000
1'
0)
11
0K
b100 .
b1000000 -
b100 #
b100000001100000 0
b100000001100000 B
b100000001100000 M
b0 O
b100000001000000 !
b100000001000000 (
b100000001000000 V
1/
b1 C
b110 D
b1011011 E
b101 4
b1110 9
b111 :
b111 =
0>
b1 5
b0 T
12
#19500
02
#20000
0'
bx 0
bx B
bx M
1K
01
b110 4
b1101 9
b10 5
b1011010 E
0/
b0 C
b10100000001010000 O
b10100000001100000 N
b1 T
12
#20500
02
#21000
1)
11
bx D
b1011001 E
b100 4
b1110 9
1>
b0 5
12
#21500
02
#22000
1'
0)
b100000001110000 0
b100000001110000 B
b100000001110000 M
0K
b101 .
b1010000 -
b101 #
01
b101 4
b1101 9
b1000 :
b1000 =
0>
b1 5
b1011000 E
1/
b1 C
b111 D
b0 O
b100000001010000 !
b100000001010000 (
b100000001010000 V
b0 T
12
#22500
02
#23000
0'
11
1K
bx 0
bx B
bx M
b10100000001100000 O
b10100000001110000 N
b1 T
0/
b0 C
b1010111 E
b110 4
b1110 9
b10 5
12
#23500
02
#24000
1)
01
b100 4
b1101 9
1>
b0 5
b1010110 E
bx D
12
#24500
02
#25000
1'
0)
11
0K
b110 .
b1100000 -
b110 #
b100000010000000 0
b100000010000000 B
b100000010000000 M
b0 O
b100000001100000 !
b100000001100000 (
b100000001100000 V
1/
b1 C
b1000 D
b1010101 E
b101 4
b1110 9
b1001 :
b1001 =
0>
b1 5
b0 T
12
#25500
02
#26000
0'
bx 0
bx B
bx M
1K
01
b110 4
b1101 9
b10 5
b1010100 E
0/
b0 C
b10100000001110000 O
b10100000010000000 N
b1 T
12
#26500
02
#27000
1)
11
bx D
b1010011 E
b100 4
b1110 9
1>
b0 5
12
#27500
02
#28000
1'
0)
b100000010010000 0
b100000010010000 B
b100000010010000 M
0K
b111 .
b1110000 -
b111 #
01
b101 4
b1101 9
b1010 :
b1010 =
0>
b1 5
b1010010 E
1/
b1 C
b1001 D
b0 O
b100000001110000 !
b100000001110000 (
b100000001110000 V
b0 T
12
#28500
02
#29000
0'
11
1K
bx 0
bx B
bx M
b10100000010000000 O
b10100000010010000 N
b1 T
0/
b0 C
b1010001 E
b110 4
b1110 9
b10 5
12
#29500
02
#30000
1)
01
b100 4
b1101 9
1>
b0 5
b1010000 E
bx D
12
#30500
02
#31000
1'
0)
11
0K
b1000 .
b10000000 -
b1000 #
b100000010100000 0
b100000010100000 B
b100000010100000 M
b0 O
b100000010000000 !
b100000010000000 (
b100000010000000 V
1/
b1 C
b1010 D
b1001111 E
b101 4
b1110 9
b1011 :
b1011 =
0>
b1 5
b0 T
12
#31500
02
#32000
0'
bx 0
bx B
bx M
1K
01
b110 4
b1101 9
b10 5
b1001110 E
0/
b0 C
b10100000010010000 O
b10100000010100000 N
b1 T
12
#32500
02
#33000
1)
11
bx D
b1001101 E
b100 4
b1110 9
1>
b0 5
12
#33500
02
#34000
1'
0)
b100000010110000 0
b100000010110000 B
b100000010110000 M
0K
b1001 .
b10010000 -
b1001 #
01
b101 4
b1101 9
b1100 :
b1100 =
0>
b1 5
b1001100 E
1/
b1 C
b1011 D
b0 O
b100000010010000 !
b100000010010000 (
b100000010010000 V
b0 T
12
#34500
02
#35000
0'
11
1K
bx 0
bx B
bx M
b10100000010100000 O
b10100000010110000 N
b1 T
0/
b0 C
b1001011 E
b110 4
b1110 9
b10 5
12
#35500
02
#36000
1)
01
b100 4
b1101 9
1>
b0 5
b1001010 E
bx D
12
#36500
02
#37000
1'
0)
11
0K
b1010 .
b10100000 -
b1010 #
b100000011000000 0
b100000011000000 B
b100000011000000 M
b0 O
b100000010100000 !
b100000010100000 (
b100000010100000 V
1/
b1 C
b1100 D
b1001001 E
b101 4
b1110 9
b1101 :
b1101 =
0>
b1 5
b0 T
12
#37500
02
#38000
0'
bx 0
bx B
bx M
1K
01
b110 4
b1101 9
b10 5
b1001000 E
0/
b0 C
b10100000010110000 O
b10100000011000000 N
b1 T
12
#38500
02
#39000
1)
11
bx D
b1000111 E
b100 4
b1110 9
1>
b0 5
12
#39500
02
#40000
1'
0)
b100000011010000 0
b100000011010000 B
b100000011010000 M
0K
b1011 .
b10110000 -
b1011 #
01
b101 4
b1101 9
b1110 :
b1110 =
0>
b1 5
b1000110 E
1/
b1 C
b1101 D
b0 O
b100000010110000 !
b100000010110000 (
b100000010110000 V
b0 T
12
#40500
02
#41000
0'
11
1K
bx 0
bx B
bx M
b10100000011000000 O
b10100000011010000 N
b1 T
0/
b0 C
b1000101 E
b110 4
b1110 9
b10 5
12
#41500
02
#42000
1)
01
b100 4
b1101 9
1>
b0 5
b1000100 E
bx D
12
#42500
02
#43000
1'
0)
11
0K
b1100 .
b11000000 -
b1100 #
b100000011100000 0
b100000011100000 B
b100000011100000 M
b0 O
b100000011000000 !
b100000011000000 (
b100000011000000 V
1/
b1 C
b1110 D
b1000011 E
b101 4
b1110 9
b1111 :
b1111 =
0>
b1 5
b0 T
12
#43500
02
#44000
0'
bx 0
bx B
bx M
1K
01
b110 4
b1101 9
b10 5
b1000010 E
0/
b0 C
b10100000011010000 O
b10100000011100000 N
b1 T
12
#44500
02
#45000
1)
11
bx D
b1000001 E
b100 4
b1110 9
1>
b0 5
12
#45500
02
#46000
1'
0)
b100000011110000 0
b100000011110000 B
b100000011110000 M
0K
b1101 .
b11010000 -
b1101 #
01
b101 4
b1101 9
b10000 :
b10000 =
0>
b1 5
b1000000 E
1/
b1 C
b1111 D
b0 O
b100000011010000 !
b100000011010000 (
b100000011010000 V
b0 T
12
#46500
02
#47000
0'
11
1K
bx 0
bx B
bx M
b10100000011100000 O
b10100000011110000 N
b1 T
0/
b0 C
b111111 E
b110 4
b1110 9
b10 5
12
#47500
02
#48000
1)
01
b100 4
b1101 9
1>
b0 5
b111110 E
bx D
12
