a5/cpu.vcd
$date
	Wed Apr 29 14:30:03 2015
$end
$version
	Icarus Verilog
$end
$timescale
	1ps
$end
$scope module main $end
$var wire 1 ! d_flush $end
$var wire 1 " d_stall $end
$var wire 1 # l_flush $end
$var wire 16 $ l_target [15:0] $end
$var wire 1 % r_flush $end
$var wire 16 & r_target [15:0] $end
$var wire 1 ' w_flush $end
$var wire 16 ( w_target [15:0] $end
$var wire 1 ) x_flush $end
$var wire 16 * x_vb [15:0] $end
$var wire 16 + x_va [15:0] $end
$var wire 16 , x_target [15:0] $end
$var wire 16 - x_result [15:0] $end
$var wire 1 . write_enabled $end
$var wire 16 / w_output [15:0] $end
$var wire 16 0 w_memOut [15:0] $end
$var wire 1 1 w_halt $end
$var wire 4 2 target [3:0] $end
$var wire 1 3 ren1 $end
$var wire 1 4 ren0 $end
$var wire 4 5 rb_val [3:0] $end
$var wire 4 6 ra_val [3:0] $end
$var wire 16 7 next_pc [15:0] $end
$var wire 16 8 memOut [15:0] $end
$var wire 16 9 d_target [15:0] $end
$var wire 1 : d_isJmp $end
$var wire 16 ; d_inst [15:0] $end
$var wire 1 < clk $end
$var reg 16 = d_pc [15:0] $end
$var reg 16 > d_savedInst [15:0] $end
$var reg 1 ? d_useSaved $end
$var reg 1 @ d_valid $end
$var reg 16 A f_pc [15:0] $end
$var reg 1 B f_valid $end
$var reg 16 C l_inst [15:0] $end
$var reg 16 D l_pc [15:0] $end
$var reg 16 E l_result [15:0] $end
$var reg 1 F l_valid $end
$var reg 16 G r_inst [15:0] $end
$var reg 16 H r_pc [15:0] $end
$var reg 1 I r_valid $end
$var reg 16 J w_inst [15:0] $end
$var reg 16 K w_pc [15:0] $end
$var reg 16 L w_result [15:0] $end
$var reg 1 M w_valid $end
$var reg 16 N x_inst [15:0] $end
$var reg 16 O x_pc [15:0] $end
$var reg 1 P x_valid $end
$upscope $end
$enddefinitions $end
#0
$dumpvars
0P
bx O
bx N
0M
bx L
bx K
bx J
0I
bx H
bx G
0F
bx E
bx D
bx C
0B
bx A
0@
0?
bx >
bx =
1<
bx ;
0:
bx 9
bx 8
b0 7
bx 6
bx 5
04
03
bx 2
01
bx 0
bx /
0.
bx -
bx ,
bx +
bx *
0)
bx (
0'
bx &
0%
bx $
0#
0"
0!
$end
#500
0<
#1000
b1 7
b0 A
1B
1<
#1500
0<
#2000
b10 7
b0 6
b0 5
b0 ;
b0 =
1@
b1 A
b0 8
1<
#2500
0<
#3000
b11 7
b1 5
b100000000010001 ;
b100000000010001 8
b0 G
b0 H
1I
b0 >
b1 =
b10 A
1<
#3500
0<
#4000
b0 -
b100 7
b0 &
b0 ,
b10 5
b100010 ;
b0 N
b0 O
1P
b100000000010001 G
b1 H
b100000000010001 >
b10 =
b11 A
b100010 8
1<
#4500
0<
#5000
b1 -
b101 7
b1 5
b100000000010011 ;
b10 &
b10 ,
b100000000010011 8
b0 E
b0 C
b0 D
1F
b100000000010001 N
b1 O
b100010 G
b10 H
b100010 >
b11 =
b100 A
1<
#5500
0<
#6000
1.
b10 -
b110 7
b100 5
b0 /
b0 2
b100 &
b100 ,
b1000100 ;
b0 L
b0 J
b0 $
b0 (
b0 K
1M
b1 E
b100000000010001 C
b1 D
b100010 N
b10 O
b100000000010011 G
b11 H
b100000000010011 >
b100 =
b101 A
b0 0
b1000100 8
1<
#6500
0<
#7000
14
13
1"
1.
b1 -
b110 7
b1 6
b10 5
b1000100100010 ;
b100000000010001 /
b1 2
b110 &
b110 ,
b100000000010001 0
b1000100100010 8
b1 L
b100000000010001 J
b1 $
b1 (
b1 K
b10 E
b100010 C
b10 D
b100000000010011 N
b11 O
b1000100 G
b100 H
b1000100 >
b101 =
b110 A
1<
#7500
0<
#8000
b100 -
b10 2
b1000 &
b1000 ,
b10 /
b10 L
b100010 J
b10 $
b10 (
b10 K
b1 E
b100000000010011 C
b11 D
b1000100 N
b100 O
b1000100100010 G
b101 H
0I
b1000100100010 >
1?
b100010 0
b10000000001000 8
1<
#8500
0<
#9000
b111 7
1.
bx -
0"
b100000000010001 /
b11 2
b111 &
b111 ,
b100000000010001 0
b1 L
b100000000010011 J
b11 $
b11 (
b11 K
b100 E
b1000100 C
b100 D
b1000100100010 N
b101 O
0P
1<
#9500
0<
#10000
04
03
b1000 9
1!
b1000 7
0"
1:
b0 6
b0 5
b100 2
b10000000001000 ;
b100 /
b100 L
b1000100 J
b100 $
b100 (
b100 K
bx E
b1000100100010 C
b101 D
0F
1I
0?
b110 =
b111 A
b100000000010001 +
b1000100 0
1<
#10500
0<
#11000
0.
b100000000010011 -
bx 9
b1001 7
0!
b10000000000111 ;
bx /
b10 2
0:
bx 0
b10000000000111 8
b10 *
bx L
b1000100100010 J
b101 $
b101 (
b101 K
0M
1P
b10000000001000 G
b110 H
0I
b10000000001000 >
b111 =
0@
b1000 A
1<
#11500
0<
#12000
bx -
b1010 7
b1 5
b1110 &
b1110 ,
b10001 ;
b100000000010011 E
1F
b10000000001000 N
b110 O
0P
b10000000000111 G
b111 H
b10000000000111 >
b1000 =
1@
b1001 A
b10001 8
1<
#12500
0<
#13000
14
13
1"
1.
b1010 7
b1 6
b1000100010001 ;
b100000000010011 /
b1110 &
b1110 ,
b1000100010001 8
b100000000010011 L
1M
bx E
b10000000001000 C
b110 D
0F
b10000000000111 N
b111 O
b10001 G
b1000 H
1I
b10001 >
b1001 =
b1010 A
1<
#13500
0<
#14000
0.
b1 -
bx /
b1000 2
b1001 &
b1001 ,
bx L
b10000000001000 J
b110 $
b110 (
b110 K
0M
b10000000000111 C
b111 D
b10001 N
b1000 O
1P
b1000100010001 G
b1001 H
0I
b1000100010001 >
1?
1<
#14500
0<
#15000
bx -
b111 2
b1010 &
b1010 ,
b100000000010001 *
b10000000000111 J
b111 $
b111 (
b111 K
b1 E
b10001 C
b1000 D
1F
b1000100010001 N
b1001 O
0P
1<
#15500
0<
#16000
1.
b1 /
b1 2
b1 L
b10001 J
b1000 $
b1000 (
b1000 K
1M
bx E
b1000100010001 C
b1001 D
0F
b100000000010001 0
1<
#16500
0<
#17000
b1011 7
0.
0"
bx /
bx 0
bx L
b1000100010001 J
b1001 $
b1001 (
b1001 K
0M
1<
#17500
0<
#18000
b1011 7
1"
1I
0?
b1010 =
b1011 A
1<
#18500
0<
#19000
b10 -
b101000100011111 8
b1 *
b1 +
1P
b1010 H
0I
1?
1<
#19500
0<
#20000
bx -
b1011 &
b1011 ,
b10 E
1F
b1010 O
0P
1<
#20500
0<
#21000
1.
b10 /
b100010 0
b10 L
1M
bx E
b1010 D
0F
1<
#21500
0<
#22000
b1100 7
0.
0"
bx /
bx L
b1010 $
b1010 (
b1010 K
0M
bx 0
1<
#22500
0<
#23000
b1100 7
1"
b101000100011111 ;
1I
0?
b1011 =
b1100 A
1<
#23500
0<
#24000
b100 -
1P
b101000100011111 G
b1011 H
0I
b101000100011111 >
1?
b10 *
b10 +
b10001 8
1<
#24500
0<
#25000
bx -
b11010 &
b11010 ,
b100 E
1F
b101000100011111 N
b1011 O
0P
1<
#25500
0<
#26000
1.
b100 /
b100 L
1M
bx E
b101000100011111 C
b1011 D
0F
b1000100 0
1<
#26500
0<
#27000
b1101 7
0.
0"
bx /
b1111 2
bx 0
bx L
b101000100011111 J
b1011 $
b1011 (
b1011 K
0M
1<
#27500
0<
#28000
04
03
b1110 7
b0 6
b10001 ;
1I
0?
b1100 =
b1101 A
1<
#28500
0<
#29000
b1000 -
b1111 7
b1 6
b100000100010100 ;
b100000100010100 8
b100 *
b100 +
1P
b10001 G
b1100 H
b10001 >
b1101 =
b1110 A
1<
#29500
0<
#30000
14
13
1"
b1 -
b1111 7
b100 5
b1101 &
b1101 ,
b101000101000100 ;
b1000 E
1F
b10001 N
b1100 O
b100000100010100 G
b1101 H
b100000100010100 >
b1110 =
b1111 A
b101000101000100 8
1<
#30500
0<
#31000
1.
b10001 -
b10001 /
b10001 &
b10001 ,
b10001 0
b1000 L
1M
b1 E
b10001 C
b1100 D
b100000100010100 N
b1101 O
b101000101000100 G
b1110 H
0I
b101000101000100 >
1?
1<
#31500
0<
#32000
bx -
b1 2
b10010 &
b10010 ,
b1 /
b1 L
b10001 J
b1100 $
b1100 (
b1100 K
b10001 E
b100000100010100 C
b1101 D
b101000101000100 N
b1110 O
0P
b100000000010001 0
1<
#32500
0<
#33000
1.
b10001 /
b100 2
b10001 0
b10001 L
b100000100010100 J
b1101 $
b1101 (
b1101 K
bx E
b101000101000100 C
b1110 D
0F
1<
#33500
0<
#34000
0.
b10000 7
0"
bx /
bx L
b101000101000100 J
b1110 $
b1110 (
b1110 K
0M
bx 0
1<
#34500
0<
#35000
b10000 7
1"
b1 +
1I
0?
b1111 =
b10000 A
1<
#35500
0<
#36000
b10010 -
1P
b1111 H
0I
1?
b10001 *
b1010000010101 8
1<
#36500
0<
#37000
bx -
b10011 &
b10011 ,
b10010 E
1F
b1111 O
0P
1<
#37500
0<
#38000
1.
b10010 /
b10010 L
1M
bx E
b1111 D
0F
b10010 0
1<
#38500
0<
#39000
0.
b10001 7
0"
bx /
bx 0
bx L
b1111 $
b1111 (
b1111 K
0M
1<
#39500
0<
#40000
b10001 7
1"
b100 6
b1 5
b1010000010101 ;
1I
0?
b10000 =
b10001 A
1<
#40500
0<
#41000
b10011 -
b10001 8
b10010 *
1P
b1010000010101 G
b10000 H
0I
b1010000010101 >
1?
1<
#41500
0<
#42000
bx -
b10101 &
b10101 ,
b10011 E
1F
b1010000010101 N
b10000 O
0P
b1 *
b10010 +
1<
#42500
0<
#43000
1.
b10011 /
b10011 0
b10011 L
1M
bx E
b1010000010101 C
b10000 D
0F
1<
#43500
0<
#44000
0.
b10010 7
0"
b101 2
bx /
bx L
b1010000010101 J
b10000 $
b10000 (
b10000 K
0M
bx 0
1<
#44500
0<
#45000
04
03
b10011 7
b0 6
b10001 ;
1I
0?
b10001 =
b10010 A
1<
#45500
0<
#46000
b10100 -
b10100 7
b10010 ;
1P
b10001 G
b10001 H
b10001 >
b10010 =
b10011 A
b10011 +
b10010 8
1<
#46500
0<
#47000
b1 -
b10101 7
b10011 ;
b10010 &
b10010 ,
b10011 8
b10100 E
1F
b10001 N
b10001 O
b10010 G
b10010 H
b10010 >
b10011 =
b10100 A
1<
#47500
0<
#48000
1.
b10110 7
b0 5
b10100 /
b10100 &
b10100 ,
b0 ;
b10100 L
1M
b1 E
b10001 C
b10001 D
b10010 N
b10010 O
b10011 G
b10011 H
b10011 >
b10100 =
b10101 A
b0 0
b0 8
1<
#48500
0<
#49000
b10111 7
b1 5
b10001 ;
b1 /
b1 2
b10110 &
b10110 ,
b100000000010001 0
b10001 8
b1 L
b10001 J
b10001 $
b10001 (
b10001 K
b10010 C
b10010 D
b10011 N
b10011 O
b0 G
b10100 H
b0 >
b10101 =
b10110 A
1<
#49500
0<
#50000
b0 -
b11000 7
b1 6
b0 5
b10 2
b10100 &
b10100 ,
b100000010 ;
b10010 J
b10010 $
b10010 (
b10010 K
b10011 C
b10011 D
b0 N
b10100 O
b10001 G
b10101 H
b10001 >
b10110 =
b10111 A
b100000010 8
1<
#50500
0<
#51000
14
13
1"
b1 -
b11000 7
b0 6
b10 5
b110000000100011 ;
b11 2
b10110 &
b10110 ,
b110000000100011 8
b10011 J
b10011 $
b10011 (
b10011 K
b0 E
b0 C
b10100 D
b10001 N
b10101 O
b100000010 G
b10110 H
b100000010 >
b10111 =
b11000 A
1<
#51500
0<
#52000
b10000 -
b0 /
b0 2
b11000 &
b11000 ,
b0 L
b0 J
b10100 $
b10100 (
b10100 K
b1 E
b10001 C
b10101 D
b100000010 N
b10110 O
b110000000100011 G
b10111 H
0I
b110000000100011 >
1?
b0 0
b1000100000000 8
1<
#52500
0<
#53000
bx -
b1 /
b1 2
b11010 &
b11010 ,
b100000000010001 0
b0 +
b1 L
b10001 J
b10101 $
b10101 (
b10101 K
b10000 E
b100000010 C
b10110 D
b110000000100011 N
b10111 O
0P
1<
#53500
0<
#54000
b10000 /
b10 2
b10000 L
b100000010 J
b10110 $
b10110 (
b10110 K
bx E
b110000000100011 C
b10111 D
0F
b1010000010101 0
1<
#54500
0<
#55000
b11001 7
0.
0"
bx /
b11 2
bx 0
bx L
b110000000100011 J
b10111 $
b10111 (
b10111 K
0M
1<
#55500
0<
#56000
14
13
b11010 7
b1 6
b0 5
b1000100000000 ;
1I
0?
b11000 =
b11001 A
1<
#56500
0<
#57000
04
03
b10111 9
1!
b10111 7
1:
b0 6
b1 5
0"
b10000000010111 ;
b10000000010111 8
b10000 *
1P
b1000100000000 G
b11000 H
b1000100000000 >
b11001 =
b11010 A
1<
#57500
0<
#58000
b1 -
bx 9
b11000 7
0!
b111 6
b111 5
b11000 &
b11000 ,
0:
b11101110111 ;
1F
b1000100000000 N
b11000 O
b10000000010111 G
b11001 H
0I
b10000000010111 >
b11010 =
0@
b10111 A
b0 *
b1 +
b11101110111 8
1<
#58500
0<
#59000
14
13
1"
bx -
b11000 7
b0 6
b10 5
b110000000100011 ;
b100000 &
b100000 ,
b110000000100011 8
1M
b1 E
b1000100000000 C
b11000 D
b10000000010111 N
b11001 O
0P
b11101110111 G
b11010 H
b11101110111 >
b10111 =
1@
b11000 A
1<
#59500
0<
#60000
1.
b1 /
b0 2
b100001 &
b100001 ,
b1 L
b1000100000000 J
b11000 $
b11000 (
b11000 K
bx E
b10000000010111 C
b11001 D
0F
b11101110111 N
b11010 O
b110000000100011 G
b10111 H
b110000000100011 >
1?
b100000000010001 0
b1000100000000 8
1<
#60500
0<
#61000
b11001 7
0.
0"
bx /
b111 2
b11010 &
b11010 ,
bx 0
b10000 *
b0 +
bx L
b10000000010111 J
b11001 $
b11001 (
b11001 K
0M
b11101110111 C
b11010 D
b110000000100011 N
b10111 O
1<
#61500
0<
#62000
14
13
b11010 7
b1 6
b0 5
b1000100000000 ;
b11101110111 J
b11010 $
b11010 (
b11010 K
b110000000100011 C
b10111 D
1I
0?
b11000 =
b11001 A
1<
#62500
0<
#63000
04
03
b10111 9
1!
b10111 7
1:
b0 6
b1 5
0"
b10000000010111 ;
b11 2
b10000000010111 8
b1 +
b110000000100011 J
b10111 $
b10111 (
b10111 K
1P
b1000100000000 G
b11000 H
b1000100000000 >
b11001 =
b11010 A
1<
#63500
0<
#64000
0!
b11000 7
b10 -
bx 9
0%
0)
b111 6
b111 5
b11000 &
b11000 ,
0:
b11101110111 ;
1F
b1000100000000 N
b11000 O
b10000000010111 G
b11001 H
0I
b10000000010111 >
b11010 =
0@
b10111 A
b1 *
b11101110111 8
1<
#64500
0<
#65000
14
13
1"
bx -
b11000 7
b0 6
b10 5
b110000000100011 ;
b100000 &
b100000 ,
b110000000100011 8
1M
b10 E
b1000100000000 C
b11000 D
b10000000010111 N
b11001 O
0P
b11101110111 G
b11010 H
b11101110111 >
b10111 =
1@
b11000 A
1<
#65500
0<
#66000
1.
b10 /
b0 2
b100001 &
b100001 ,
b10 L
b1000100000000 J
b11000 $
b11000 (
b11000 K
bx E
b10000000010111 C
b11001 D
0F
b11101110111 N
b11010 O
b110000000100011 G
b10111 H
b110000000100011 >
1?
b100010 0
b1000100000000 8
1<
#66500
0<
#67000
b11001 7
0.
0"
bx /
b111 2
b11010 &
b11010 ,
bx 0
b10000 *
bx L
b10000000010111 J
b11001 $
b11001 (
b11001 K
0M
b11101110111 C
b11010 D
b110000000100011 N
b10111 O
1<
#67500
0<
#68000
14
13
b11010 7
b1 6
b0 5
b1000100000000 ;
b11101110111 J
b11010 $
b11010 (
b11010 K
b110000000100011 C
b10111 D
1I
0?
b11000 =
b11001 A
1<
#68500
0<
#69000
04
03
b10111 9
1!
b10111 7
1:
b0 6
b1 5
0"
b10000000010111 ;
b11 2
b10000000010111 8
b10 +
b110000000100011 J
b10111 $
b10111 (
b10111 K
1P
b1000100000000 G
b11000 H
b1000100000000 >
b11001 =
b11010 A
1<
#69500
0<
#70000
b11 -
bx 9
b11000 7
0!
b111 6
b111 5
b11000 &
b11000 ,
0:
b11101110111 ;
1F
b1000100000000 N
b11000 O
b10000000010111 G
b11001 H
0I
b10000000010111 >
b11010 =
0@
b10111 A
b10 *
b1 +
b11101110111 8
1<
#70500
0<
#71000
14
13
1"
bx -
b11000 7
b0 6
b10 5
b110000000100011 ;
b100000 &
b100000 ,
b110000000100011 8
1M
b11 E
b1000100000000 C
b11000 D
b10000000010111 N
b11001 O
0P
b11101110111 G
b11010 H
b11101110111 >
b10111 =
1@
b11000 A
1<
#71500
0<
#72000
1.
b11 /
b0 2
b100001 &
b100001 ,
b11 L
b1000100000000 J
b11000 $
b11000 (
b11000 K
bx E
b10000000010111 C
b11001 D
0F
b11101110111 N
b11010 O
b110000000100011 G
b10111 H
b110000000100011 >
1?
b100000000010011 0
b1000100000000 8
1<
#72500
0<
#73000
b11001 7
0.
0"
bx /
b111 2
b11010 &
b11010 ,
bx 0
b10000 *
b10 +
bx L
b10000000010111 J
b11001 $
b11001 (
b11001 K
0M
b11101110111 C
b11010 D
b110000000100011 N
b10111 O
1<
#73500
0<
#74000
14
13
b11010 7
b1 6
b0 5
b1000100000000 ;
b11101110111 J
b11010 $
b11010 (
b11010 K
b110000000100011 C
b10111 D
1I
0?
b11000 =
b11001 A
1<
#74500
0<
#75000
04
03
b10111 9
1!
b10111 7
1:
b0 6
b1 5
0"
b10000000010111 ;
b11 2
b10000000010111 8
b11 +
b110000000100011 J
b10111 $
b10111 (
b10111 K
1P
b1000100000000 G
b11000 H
b1000100000000 >
b11001 =
b11010 A
1<
#75500
0<
#76000
b100 -
bx 9
b11000 7
0!
b111 6
b111 5
b11000 &
b11000 ,
0:
b11101110111 ;
1F
b1000100000000 N
b11000 O
b10000000010111 G
b11001 H
0I
b10000000010111 >
b11010 =
0@
b10111 A
b11 *
b1 +
b11101110111 8
1<
#76500
0<
#77000
14
13
1"
bx -
b11000 7
b0 6
b10 5
b110000000100011 ;
b100000 &
b100000 ,
b110000000100011 8
1M
b100 E
b1000100000000 C
b11000 D
b10000000010111 N
b11001 O
0P
b11101110111 G
b11010 H
b11101110111 >
b10111 =
1@
b11000 A
1<
#77500
0<
#78000
1.
b100 /
b0 2
b100001 &
b100001 ,
b100 L
b1000100000000 J
b11000 $
b11000 (
b11000 K
bx E
b10000000010111 C
b11001 D
0F
b11101110111 N
b11010 O
b110000000100011 G
b10111 H
b110000000100011 >
1?
b1000100 0
b1000100000000 8
1<
#78500
0<
#79000
b11001 7
0.
0"
bx /
b111 2
b11010 &
b11010 ,
bx 0
b10000 *
b11 +
bx L
b10000000010111 J
b11001 $
b11001 (
b11001 K
0M
b11101110111 C
b11010 D
b110000000100011 N
b10111 O
1<
#79500
0<
#80000
14
13
b11010 7
b1 6
b0 5
b1000100000000 ;
b11101110111 J
b11010 $
b11010 (
b11010 K
b110000000100011 C
b10111 D
1I
0?
b11000 =
b11001 A
1<
#80500
0<
#81000
04
03
b10111 9
1!
b10111 7
1:
b0 6
b1 5
0"
b10000000010111 ;
b11 2
b10000000010111 8
b100 +
b110000000100011 J
b10111 $
b10111 (
b10111 K
1P
b1000100000000 G
b11000 H
b1000100000000 >
b11001 =
b11010 A
1<
#81500
0<
#82000
b101 -
bx 9
b11000 7
0!
b111 6
b111 5
b11000 &
b11000 ,
0:
b11101110111 ;
1F
b1000100000000 N
b11000 O
b10000000010111 G
b11001 H
0I
b10000000010111 >
b11010 =
0@
b10111 A
b100 *
b1 +
b11101110111 8
1<
#82500
0<
#83000
14
13
1"
bx -
b11000 7
b0 6
b10 5
b110000000100011 ;
b100000 &
b100000 ,
b110000000100011 8
1M
b101 E
b1000100000000 C
b11000 D
b10000000010111 N
b11001 O
0P
b11101110111 G
b11010 H
b11101110111 >
b10111 =
1@
b11000 A
1<
#83500
0<
#84000
1.
b101 /
b0 2
b100001 &
b100001 ,
b101 L
b1000100000000 J
b11000 $
b11000 (
b11000 K
bx E
b10000000010111 C
b11001 D
0F
b11101110111 N
b11010 O
b110000000100011 G
b10111 H
b110000000100011 >
1?
b1000100100010 0
b1000100000000 8
1<
#84500
0<
#85000
b11001 7
0.
0"
bx /
b111 2
b11010 &
b11010 ,
bx 0
b10000 *
b100 +
bx L
b10000000010111 J
b11001 $
b11001 (
b11001 K
0M
b11101110111 C
b11010 D
b110000000100011 N
b10111 O
1<
#85500
0<
#86000
14
13
b11010 7
b1 6
b0 5
b1000100000000 ;
b11101110111 J
b11010 $
b11010 (
b11010 K
b110000000100011 C
b10111 D
1I
0?
b11000 =
b11001 A
1<
#86500
0<
#87000
04
03
b10111 9
1!
b10111 7
1:
b0 6
b1 5
0"
b10000000010111 ;
b11 2
b10000000010111 8
b101 +
b110000000100011 J
b10111 $
b10111 (
b10111 K
1P
b1000100000000 G
b11000 H
b1000100000000 >
b11001 =
b11010 A
1<
#87500
0<
#88000
b110 -
bx 9
b11000 7
0!
b111 6
b111 5
b11000 &
b11000 ,
0:
b11101110111 ;
1F
b1000100000000 N
b11000 O
b10000000010111 G
b11001 H
0I
b10000000010111 >
b11010 =
0@
b10111 A
b101 *
b1 +
b11101110111 8
1<
#88500
0<
#89000
14
13
1"
bx -
b11000 7
b0 6
b10 5
b110000000100011 ;
b100000 &
b100000 ,
b110000000100011 8
1M
b110 E
b1000100000000 C
b11000 D
b10000000010111 N
b11001 O
0P
b11101110111 G
b11010 H
b11101110111 >
b10111 =
1@
b11000 A
1<
#89500
0<
#90000
1.
b110 /
b0 2
b100001 &
b100001 ,
b110 L
b1000100000000 J
b11000 $
b11000 (
b11000 K
bx E
b10000000010111 C
b11001 D
0F
b11101110111 N
b11010 O
b110000000100011 G
b10111 H
b110000000100011 >
1?
b10000000001000 0
b1000100000000 8
1<
#90500
0<
#91000
b11001 7
0.
0"
bx /
b111 2
b11010 &
b11010 ,
bx 0
b10000 *
b101 +
bx L
b10000000010111 J
b11001 $
b11001 (
b11001 K
0M
b11101110111 C
b11010 D
b110000000100011 N
b10111 O
1<
#91500
0<
#92000
14
13
b11010 7
b1 6
b0 5
b1000100000000 ;
b11101110111 J
b11010 $
b11010 (
b11010 K
b110000000100011 C
b10111 D
1I
0?
b11000 =
b11001 A
1<
#92500
0<
#93000
04
03
b10111 9
1!
b10111 7
1:
b0 6
b1 5
0"
b10000000010111 ;
b11 2
b10000000010111 8
b110 +
b110000000100011 J
b10111 $
b10111 (
b10111 K
1P
b1000100000000 G
b11000 H
b1000100000000 >
b11001 =
b11010 A
1<
#93500
0<
#94000
b111 -
bx 9
b11000 7
0!
b111 6
b111 5
b11000 &
b11000 ,
0:
b11101110111 ;
1F
b1000100000000 N
b11000 O
b10000000010111 G
b11001 H
0I
b10000000010111 >
b11010 =
0@
b10111 A
b110 *
b1 +
b11101110111 8
1<
#94500
0<
#95000
14
13
1"
bx -
b11000 7
b0 6
b10 5
b110000000100011 ;
b100000 &
b100000 ,
b110000000100011 8
1M
b111 E
b1000100000000 C
b11000 D
b10000000010111 N
b11001 O
0P
b11101110111 G
b11010 H
b11101110111 >
b10111 =
1@
b11000 A
1<
#95500
0<
#96000
1.
b111 /
b0 2
b100001 &
b100001 ,
b111 L
b1000100000000 J
b11000 $
b11000 (
b11000 K
bx E
b10000000010111 C
b11001 D
0F
b11101110111 N
b11010 O
b110000000100011 G
b10111 H
b110000000100011 >
1?
b10000000000111 0
b1000100000000 8
1<
#96500
0<
#97000
b11001 7
0.
0"
bx /
b111 2
b11010 &
b11010 ,
bx 0
b10000 *
b110 +
bx L
b10000000010111 J
b11001 $
b11001 (
b11001 K
0M
b11101110111 C
b11010 D
b110000000100011 N
b10111 O
1<
#97500
0<
#98000
14
13
b11010 7
b1 6
b0 5
b1000100000000 ;
b11101110111 J
b11010 $
b11010 (
b11010 K
b110000000100011 C
b10111 D
1I
0?
b11000 =
b11001 A
1<
#98500
0<
#99000
04
03
b10111 9
1!
b10111 7
1:
b0 6
b1 5
0"
b10000000010111 ;
b11 2
b10000000010111 8
b111 +
b110000000100011 J
b10111 $
b10111 (
b10111 K
1P
b1000100000000 G
b11000 H
b1000100000000 >
b11001 =
b11010 A
1<
#99500
0<
#100000
b1000 -
bx 9
b11000 7
0!
b111 6
b111 5
b11000 &
b11000 ,
0:
b11101110111 ;
1F
b1000100000000 N
b11000 O
b10000000010111 G
b11001 H
0I
b10000000010111 >
b11010 =
0@
b10111 A
b111 *
b1 +
b11101110111 8
1<
#100500
0<
#101000
14
13
1"
bx -
b11000 7
b0 6
b10 5
b110000000100011 ;
b100000 &
b100000 ,
b110000000100011 8
1M
b1000 E
b1000100000000 C
b11000 D
b10000000010111 N
b11001 O
0P
b11101110111 G
b11010 H
b11101110111 >
b10111 =
1@
b11000 A
1<
#101500
0<
#102000
1.
b1000 /
b0 2
b100001 &
b100001 ,
b1000 L
b1000100000000 J
b11000 $
b11000 (
b11000 K
bx E
b10000000010111 C
b11001 D
0F
b11101110111 N
b11010 O
b110000000100011 G
b10111 H
b110000000100011 >
1?
b10001 0
b1000100000000 8
1<
#102500
0<
#103000
b11001 7
0.
0"
bx /
b111 2
b11010 &
b11010 ,
bx 0
b10000 *
b111 +
bx L
b10000000010111 J
b11001 $
b11001 (
b11001 K
0M
b11101110111 C
b11010 D
b110000000100011 N
b10111 O
1<
#103500
0<
#104000
14
13
b11010 7
b1 6
b0 5
b1000100000000 ;
b11101110111 J
b11010 $
b11010 (
b11010 K
b110000000100011 C
b10111 D
1I
0?
b11000 =
b11001 A
1<
#104500
0<
#105000
04
03
b10111 9
1!
b10111 7
1:
b0 6
b1 5
0"
b10000000010111 ;
b11 2
b10000000010111 8
b1000 +
b110000000100011 J
b10111 $
b10111 (
b10111 K
1P
b1000100000000 G
b11000 H
b1000100000000 >
b11001 =
b11010 A
1<
#105500
0<
#106000
b1001 -
bx 9
b11000 7
0!
b111 6
b111 5
b11000 &
b11000 ,
0:
b11101110111 ;
1F
b1000100000000 N
b11000 O
b10000000010111 G
b11001 H
0I
b10000000010111 >
b11010 =
0@
b10111 A
b1000 *
b1 +
b11101110111 8
1<
#106500
0<
#107000
14
13
1"
bx -
b11000 7
b0 6
b10 5
b110000000100011 ;
b100000 &
b100000 ,
b110000000100011 8
1M
b1001 E
b1000100000000 C
b11000 D
b10000000010111 N
b11001 O
0P
b11101110111 G
b11010 H
b11101110111 >
b10111 =
1@
b11000 A
1<
#107500
0<
#108000
1.
b1001 /
b0 2
b100001 &
b100001 ,
b1001 L
b1000100000000 J
b11000 $
b11000 (
b11000 K
bx E
b10000000010111 C
b11001 D
0F
b11101110111 N
b11010 O
b110000000100011 G
b10111 H
b110000000100011 >
1?
b1000100010001 0
b1000100000000 8
1<
#108500
0<
#109000
b11001 7
0.
0"
bx /
b111 2
b11010 &
b11010 ,
bx 0
b10000 *
b1000 +
bx L
b10000000010111 J
b11001 $
b11001 (
b11001 K
0M
b11101110111 C
b11010 D
b110000000100011 N
b10111 O
1<
#109500
0<
#110000
14
13
b11010 7
b1 6
b0 5
b1000100000000 ;
b11101110111 J
b11010 $
b11010 (
b11010 K
b110000000100011 C
b10111 D
1I
0?
b11000 =
b11001 A
1<
#110500
0<
#111000
04
03
b10111 9
1!
b10111 7
1:
b0 6
b1 5
0"
b10000000010111 ;
b11 2
b10000000010111 8
b1001 +
b110000000100011 J
b10111 $
b10111 (
b10111 K
1P
b1000100000000 G
b11000 H
b1000100000000 >
b11001 =
b11010 A
1<
#111500
0<
#112000
b1010 -
bx 9
b11000 7
0!
b111 6
b111 5
b11000 &
b11000 ,
0:
b11101110111 ;
1F
b1000100000000 N
b11000 O
b10000000010111 G
b11001 H
0I
b10000000010111 >
b11010 =
0@
b10111 A
b1001 *
b1 +
b11101110111 8
1<
#112500
0<
#113000
14
13
1"
bx -
b11000 7
b0 6
b10 5
b110000000100011 ;
b100000 &
b100000 ,
b110000000100011 8
1M
b1010 E
b1000100000000 C
b11000 D
b10000000010111 N
b11001 O
0P
b11101110111 G
b11010 H
b11101110111 >
b10111 =
1@
b11000 A
1<
#113500
0<
#114000
1.
b1010 /
b0 2
b100001 &
b100001 ,
b1010 L
b1000100000000 J
b11000 $
b11000 (
b11000 K
bx E
b10000000010111 C
b11001 D
0F
b11101110111 N
b11010 O
b110000000100011 G
b10111 H
b110000000100011 >
1?
b1000100010001 0
b1000100000000 8
1<
#114500
0<
#115000
b11001 7
0.
0"
bx /
b111 2
b11010 &
b11010 ,
bx 0
b10000 *
b1001 +
bx L
b10000000010111 J
b11001 $
b11001 (
b11001 K
0M
b11101110111 C
b11010 D
b110000000100011 N
b10111 O
1<
#115500
0<
#116000
14
13
b11010 7
b1 6
b0 5
b1000100000000 ;
b11101110111 J
b11010 $
b11010 (
b11010 K
b110000000100011 C
b10111 D
1I
0?
b11000 =
b11001 A
1<
#116500
0<
#117000
04
03
b10111 9
1!
b10111 7
1:
b0 6
b1 5
0"
b10000000010111 ;
b11 2
b10000000010111 8
b1010 +
b110000000100011 J
b10111 $
b10111 (
b10111 K
1P
b1000100000000 G
b11000 H
b1000100000000 >
b11001 =
b11010 A
1<
#117500
0<
#118000
b1011 -
bx 9
b11000 7
0!
b111 6
b111 5
b11000 &
b11000 ,
0:
b11101110111 ;
1F
b1000100000000 N
b11000 O
b10000000010111 G
b11001 H
0I
b10000000010111 >
b11010 =
0@
b10111 A
b1010 *
b1 +
b11101110111 8
1<
#118500
0<
#119000
14
13
1"
bx -
b11000 7
b0 6
b10 5
b110000000100011 ;
b100000 &
b100000 ,
b110000000100011 8
1M
b1011 E
b1000100000000 C
b11000 D
b10000000010111 N
b11001 O
0P
b11101110111 G
b11010 H
b11101110111 >
b10111 =
1@
b11000 A
1<
#119500
0<
