a3/cpu.vcd
$date
	Fri Apr 17 00:28:56 2015
$end
$version
	Icarus Verilog
$end
$timescale
	1ps
$end
$scope module main $end
$var wire 16 ! vb [15:0] $end
$var wire 16 " va [15:0] $end
$var wire 4 # rt [3:0] $end
$var wire 4 $ rb [3:0] $end
$var wire 4 % ra [3:0] $end
$var wire 4 & opcode [3:0] $end
$var wire 16 ' memOut [15:0] $end
$var wire 16 ( memIn [15:0] $end
$var wire 16 ) jjj [15:0] $end
$var wire 16 * ii [15:0] $end
$var wire 1 + clk $end
$var reg 16 , cache_write [15:0] $end
$var reg 16 - cycle [15:0] $end
$var reg 16 . inst [15:0] $end
$var reg 16 / oldest [15:0] $end
$var reg 16 0 oldest_line [15:0] $end
$var reg 16 1 pc [15:0] $end
$var reg 16 2 res [15:0] $end
$var reg 4 3 state [3:0] $end
$var reg 16 4 write_to [15:0] $end
$var integer 32 5 i [31:0] $end
$upscope $end
$scope module main $end
$var reg 16 6 \i_cache0[0] [15:0] $end
$upscope $end
$scope module main $end
$var reg 16 7 \i_cache1[0] [15:0] $end
$upscope $end
$scope module main $end
$var reg 16 8 \cache0[0] [15:0] $end
$upscope $end
$scope module main $end
$var reg 16 9 \cache1[0] [15:0] $end
$upscope $end
$scope module main $end
$var reg 16 : \i_cache0[1] [15:0] $end
$upscope $end
$scope module main $end
$var reg 16 ; \i_cache1[1] [15:0] $end
$upscope $end
$scope module main $end
$var reg 16 < \cache0[1] [15:0] $end
$upscope $end
$scope module main $end
$var reg 16 = \cache1[1] [15:0] $end
$upscope $end
$scope module main $end
$var reg 16 > \i_cache0[2] [15:0] $end
$upscope $end
$scope module main $end
$var reg 16 ? \i_cache1[2] [15:0] $end
$upscope $end
$scope module main $end
$var reg 16 @ \cache0[2] [15:0] $end
$upscope $end
$scope module main $end
$var reg 16 A \cache1[2] [15:0] $end
$upscope $end
$enddefinitions $end
#0
$dumpvars
b0 A
b0 @
b0 ?
b0 >
b0 =
b0 <
b0 ;
b0 :
b0 9
b0 8
b0 7
b0 6
b11 5
bx 4
b0 3
bx 2
b0 1
b0 0
b0 /
bx .
b0 -
bx ,
1+
b0xxxxxxxx *
b0xxxxxxxxxxxx )
b0 (
bx '
bx &
bx %
bx $
bx #
bx "
bx !
$end
#500
0+
#1000
bx (
b1 3
1+
#1500
0+
#2000
b1 $
b0 %
b10 3
b0 4
b0 :
b1 6
b10000 '
1+
#2500
0+
#3000
bx $
bx %
b0 &
b0 #
b10000 )
b1 *
bx '
b10000 .
b11 3
b10000 >
1+
#3500
0+
#4000
b1 (
b111 3
b1 2
1+
#4500
0+
#5000
bx (
b1 3
b1 1
1+
#5500
0+
#6000
b0 $
b0 %
b10 3
b1 4
b1 ;
b1 7
b1000000000000 '
1+
#6500
0+
#7000
bx $
bx %
b1 &
b0 )
b0 *
bx '
b1000000000000 .
b11 3
b1000000000000 ?
1+
#7500
0+
#8000
b1010 3
b1 !
b1 "
1+
#8500
0+
#9000
b10 (
b111 3
b10 2
1+
#9500
0+
#10000
bx (
b1 3
b10 1
1+
#10500
0+
#11000
b0 $
b0 %
b1000000000000 '
b10 3
b1 /
b0 4
b10 :
1+
#11500
0+
#12000
bx $
bx %
b11 3
b1000000000000 >
bx '
1+
#12500
0+
#13000
b10 !
b10 "
b1010 3
1+
#13500
0+
#14000
b11 (
b111 3
b100 2
1+
#14500
0+
#15000
bx (
b1 3
b11 1
1+
#15500
0+
#16000
b0 $
b0 %
b10 3
b0 /
b1 4
b11 ;
b1000000000000 '
1+
#16500
0+
#17000
bx $
bx %
bx '
b11 3
b1000000000000 ?
1+
#17500
0+
#18000
b1010 3
b100 !
b100 "
1+
#18500
0+
#19000
b100 (
b111 3
b1000 2
1+
#19500
0+
#20000
bx (
b1 3
b100 1
1+
#20500
0+
#21000
b0 $
b0 %
b1000000000000 '
b10 3
b1 /
b0 4
b100 :
1+
#21500
0+
#22000
bx $
bx %
b11 3
b1000000000000 >
bx '
1+
#22500
0+
#23000
b1000 !
b1000 "
b1010 3
1+
#23500
0+
#24000
b101 (
b111 3
b10000 2
1+
#24500
0+
#25000
bx (
b1 3
b101 1
1+
#25500
0+
#26000
b0 $
b0 %
b10 3
b0 /
b1 4
b101 ;
b1000000000000 '
1+
#26500
0+
#27000
bx $
bx %
bx '
b11 3
b1000000000000 ?
1+
#27500
0+
#28000
b1010 3
b10000 !
b10000 "
1+
#28500
0+
#29000
b110 (
b111 3
b100000 2
1+
#29500
0+
#30000
bx (
b1 3
b110 1
1+
#30500
0+
#31000
b0 $
b0 %
b1000000000000 '
b10 3
b1 /
b0 4
b110 :
1+
#31500
0+
#32000
bx $
bx %
b11 3
b1000000000000 >
bx '
1+
#32500
0+
#33000
b100000 !
b100000 "
b1010 3
1+
#33500
0+
#34000
b111 (
b111 3
b1000000 2
1+
#34500
0+
#35000
bx (
b1 3
b111 1
1+
#35500
0+
#36000
b0 $
b0 %
b10 3
b0 /
b1 4
b111 ;
b1000000000000 '
1+
#36500
0+
#37000
bx $
bx %
bx '
b11 3
b1000000000000 ?
1+
#37500
0+
#38000
b1010 3
b1000000 !
b1000000 "
1+
#38500
0+
#39000
b1000 (
b111 3
b10000000 2
1+
#39500
0+
#40000
bx (
b1 3
b1000 1
1+
#40500
0+
#41000
b0 $
b0 %
b1000000000000 '
b10 3
b1 /
b0 4
b1000 :
1+
#41500
0+
#42000
bx $
bx %
b11 3
b1000000000000 >
bx '
1+
#42500
0+
#43000
b10000000 !
b10000000 "
b1010 3
1+
#43500
0+
#44000
b1001 (
b111 3
b100000000 2
1+
#44500
0+
#45000
bx (
b1 3
b1001 1
1+
#45500
0+
#46000
b0 $
b0 %
b10 3
b0 /
b1 4
b1001 ;
b1000000000000 '
1+
#46500
0+
#47000
bx $
bx %
bx '
b11 3
b1000000000000 ?
1+
#47500
0+
#48000
b1010 3
b100000000 !
b100000000 "
1+
#48500
0+
#49000
b1010 (
b111 3
b1000000000 2
1+
#49500
0+
#50000
bx (
b1 3
b1010 1
1+
#50500
0+
#51000
b0 $
b0 %
b1000000000000 '
b10 3
b1 /
b0 4
b1010 :
1+
#51500
0+
#52000
bx $
bx %
b11 3
b1000000000000 >
bx '
1+
#52500
0+
#53000
b1000000000 !
b1000000000 "
b1010 3
1+
#53500
0+
#54000
b1011 (
b111 3
b10000000000 2
1+
#54500
0+
#55000
bx (
b1 3
b1011 1
1+
#55500
0+
#56000
b0 $
b0 %
b10 3
b0 /
b1 4
b1011 ;
b1000000000000 '
1+
#56500
0+
#57000
bx $
bx %
bx '
b11 3
b1000000000000 ?
1+
#57500
0+
#58000
b1010 3
b10000000000 !
b10000000000 "
1+
#58500
0+
#59000
b1100 (
b111 3
b100000000000 2
1+
#59500
0+
#60000
bx (
b1 3
b1100 1
1+
#60500
0+
#61000
b0 $
b0 %
b1000000000000 '
b10 3
b1 /
b0 4
b1100 :
1+
#61500
0+
#62000
bx $
bx %
b11 3
b1000000000000 >
bx '
1+
#62500
0+
#63000
b100000000000 !
b100000000000 "
b1010 3
1+
#63500
0+
#64000
b1101 (
b111 3
b1000000000000 2
1+
#64500
0+
#65000
bx (
b1 3
b1101 1
1+
#65500
0+
#66000
b10 3
b0 /
b1 4
b1101 ;
1+
#66500
0+
#67000
bx &
bx #
b0xxxxxxxxxxxx )
b0xxxxxxxx *
bx .
b11 3
bx ?
1+
#67500
0+
#68000
b1 3
b1110 1
1+
#68500
0+
#69000
b10 3
b1 /
b0 4
b1110 :
1+
#69500
0+
#70000
b11 3
bx >
1+
#70500
0+
#71000
b1 3
b1111 1
1+
#71500
0+
#72000
b10 3
b0 /
b1 4
b1111 ;
1+
#72500
0+
#73000
b11 3
bx ?
1+
#73500
0+
#74000
b1 3
b10000 1
1+
#74500
0+
#75000
b10 3
b1 /
b0 4
b10000 :
1+
#75500
0+
#76000
b11 3
bx >
1+
#76500
0+
#77000
b1 3
b10001 1
1+
#77500
0+
#78000
b10 3
b0 /
b1 4
b10001 ;
1+
#78500
0+
#79000
b11 3
bx ?
1+
#79500
0+
#80000
b1 3
b10010 1
1+
#80500
0+
#81000
b10 3
b1 /
b0 4
b10010 :
1+
#81500
0+
#82000
b11 3
bx >
1+
#82500
0+
#83000
b1 3
b10011 1
1+
#83500
0+
#84000
b10 3
b0 /
b1 4
b10011 ;
1+
#84500
0+
#85000
b11 3
bx ?
1+
#85500
0+
#86000
b1 3
b10100 1
1+
#86500
0+
#87000
b10 3
b1 /
b0 4
b10100 :
1+
#87500
0+
#88000
b11 3
bx >
1+
#88500
0+
#89000
b1 3
b10101 1
1+
#89500
0+
#90000
b10 3
b0 /
b1 4
b10101 ;
1+
#90500
0+
#91000
b11 3
bx ?
1+
#91500
0+
#92000
b1 3
b10110 1
1+
#92500
0+
#93000
b10 3
b1 /
b0 4
b10110 :
1+
#93500
0+
#94000
b11 3
bx >
1+
#94500
0+
#95000
b1 3
b10111 1
1+
#95500
0+
#96000
b10 3
b0 /
b1 4
b10111 ;
1+
#96500
0+
#97000
b11 3
bx ?
1+
#97500
0+
#98000
b1 3
b11000 1
1+
#98500
0+
#99000
b10 3
b1 /
b0 4
b11000 :
1+
#99500
0+
#100000
b11 3
bx >
1+
#100500
0+
#101000
b1 3
b11001 1
1+
#101500
0+
#102000
b10 3
b0 /
b1 4
b11001 ;
1+
#102500
0+
#103000
b11 3
bx ?
1+
#103500
0+
#104000
b1 3
b11010 1
1+
#104500
0+
#105000
b10 3
b1 /
b0 4
b11010 :
1+
#105500
0+
#106000
b11 3
bx >
1+
#106500
0+
#107000
b1 3
b11011 1
1+
#107500
0+
#108000
b10 3
b0 /
b1 4
b11011 ;
1+
#108500
0+
#109000
b11 3
bx ?
1+
#109500
0+
#110000
b1 3
b11100 1
1+
#110500
0+
#111000
b10 3
b1 /
b0 4
b11100 :
1+
#111500
0+
#112000
b11 3
bx >
1+
#112500
0+
#113000
b1 3
b11101 1
1+
#113500
0+
#114000
b10 3
b0 /
b1 4
b11101 ;
1+
#114500
0+
#115000
b11 3
bx ?
1+
#115500
0+
#116000
b1 3
b11110 1
1+
#116500
0+
#117000
b10 3
b1 /
b0 4
b11110 :
1+
#117500
0+
#118000
b11 3
bx >
1+
#118500
0+
#119000
b1 3
b11111 1
1+
#119500
0+
#120000
b10 3
b0 /
b1 4
b11111 ;
1+
#120500
0+
#121000
b11 3
bx ?
1+
#121500
0+
#122000
b1 3
b100000 1
1+
#122500
0+
#123000
b10 3
b1 /
b0 4
b100000 :
1+
#123500
0+
#124000
b11 3
bx >
1+
#124500
0+
#125000
b1 3
b100001 1
1+
#125500
0+
#126000
b10 3
b0 /
b1 4
b100001 ;
1+
#126500
0+
#127000
b11 3
bx ?
1+
#127500
0+
#128000
b1 3
b100010 1
1+
#128500
0+
#129000
b10 3
b1 /
b0 4
b100010 :
1+
#129500
0+
#130000
b11 3
bx >
1+
#130500
0+
#131000
b1 3
b100011 1
1+
#131500
0+
#132000
b10 3
b0 /
b1 4
b100011 ;
1+
#132500
0+
#133000
b11 3
bx ?
1+
#133500
0+
#134000
b1 3
b100100 1
1+
#134500
0+
#135000
b10 3
b1 /
b0 4
b100100 :
1+
#135500
0+
#136000
b11 3
bx >
1+
#136500
0+
#137000
b1 3
b100101 1
1+
#137500
0+
#138000
b10 3
b0 /
b1 4
b100101 ;
1+
#138500
0+
#139000
b11 3
bx ?
1+
#139500
0+
#140000
b1 3
b100110 1
1+
#140500
0+
#141000
b10 3
b1 /
b0 4
b100110 :
1+
#141500
0+
#142000
b11 3
bx >
1+
#142500
0+
#143000
b1 3
b100111 1
1+
#143500
0+
#144000
b10 3
b0 /
b1 4
b100111 ;
1+
#144500
0+
#145000
b11 3
bx ?
1+
#145500
0+
#146000
b1 3
b101000 1
1+
#146500
0+
#147000
b10 3
b1 /
b0 4
b101000 :
1+
#147500
0+
#148000
b11 3
bx >
1+
#148500
0+
#149000
b1 3
b101001 1
1+
#149500
0+
#150000
b10 3
b0 /
b1 4
b101001 ;
1+
#150500
0+
#151000
b11 3
bx ?
1+
#151500
0+
#152000
b1 3
b101010 1
1+
#152500
0+
#153000
b10 3
b1 /
b0 4
b101010 :
1+
#153500
0+
#154000
b11 3
bx >
1+
#154500
0+
#155000
b1 3
b101011 1
1+
#155500
0+
#156000
b10 3
b0 /
b1 4
b101011 ;
1+
#156500
0+
#157000
b11 3
bx ?
1+
#157500
0+
#158000
b1 3
b101100 1
1+
#158500
0+
#159000
b10 3
b1 /
b0 4
b101100 :
1+
#159500
0+
#160000
b11 3
bx >
1+
#160500
0+
#161000
b1 3
b101101 1
1+
#161500
0+
#162000
b10 3
b0 /
b1 4
b101101 ;
1+
#162500
0+
#163000
b11 3
bx ?
1+
#163500
0+
#164000
b1 3
b101110 1
1+
#164500
0+
#165000
b10 3
b1 /
b0 4
b101110 :
1+
#165500
0+
#166000
b11 3
bx >
1+
#166500
0+
#167000
b1 3
b101111 1
1+
#167500
0+
#168000
b10 3
b0 /
b1 4
b101111 ;
1+
#168500
0+
#169000
b11 3
bx ?
1+
#169500
0+
#170000
b1 3
b110000 1
1+
#170500
0+
#171000
b10 3
b1 /
b0 4
b110000 :
1+
#171500
0+
#172000
b11 3
bx >
1+
#172500
0+
#173000
b1 3
b110001 1
1+
#173500
0+
#174000
b10 3
b0 /
b1 4
b110001 ;
1+
#174500
0+
#175000
b11 3
bx ?
1+
#175500
0+
#176000
b1 3
b110010 1
1+
#176500
0+
#177000
b10 3
b1 /
b0 4
b110010 :
1+
#177500
0+
#178000
b11 3
bx >
1+
#178500
0+
#179000
b1 3
b110011 1
1+
#179500
0+
#180000
b10 3
b0 /
b1 4
b110011 ;
1+
#180500
0+
#181000
b11 3
bx ?
1+
#181500
0+
#182000
b1 3
b110100 1
1+
#182500
0+
#183000
b10 3
b1 /
b0 4
b110100 :
1+
#183500
0+
#184000
b11 3
bx >
1+
#184500
0+
#185000
b1 3
b110101 1
1+
#185500
0+
#186000
b10 3
b0 /
b1 4
b110101 ;
1+
#186500
0+
#187000
b11 3
bx ?
1+
#187500
0+
#188000
b1 3
b110110 1
1+
#188500
0+
#189000
b10 3
b1 /
b0 4
b110110 :
1+
#189500
0+
#190000
b11 3
bx >
1+
#190500
0+
#191000
b1 3
b110111 1
1+
#191500
0+
#192000
b10 3
b0 /
b1 4
b110111 ;
1+
#192500
0+
#193000
b11 3
bx ?
1+
#193500
0+
#194000
b1 3
b111000 1
1+
#194500
0+
#195000
b10 3
b1 /
b0 4
b111000 :
1+
#195500
0+
#196000
b11 3
bx >
1+
#196500
0+
#197000
b1 3
b111001 1
1+
#197500
0+
#198000
b10 3
b0 /
b1 4
b111001 ;
1+
#198500
0+
#199000
b11 3
bx ?
1+
#199500
0+
#200000
b1 3
b111010 1
1+
#200500
0+
#201000
b10 3
b1 /
b0 4
b111010 :
1+
#201500
0+
#202000
b11 3
bx >
1+
#202500
0+
#203000
b1 3
b111011 1
1+
#203500
0+
#204000
b10 3
b0 /
b1 4
b111011 ;
1+
#204500
0+
#205000
b11 3
bx ?
1+
#205500
0+
#206000
b1 3
b111100 1
1+
#206500
0+
#207000
b10 3
b1 /
b0 4
b111100 :
1+
#207500
0+
#208000
b11 3
bx >
1+
#208500
0+
#209000
b1 3
b111101 1
1+
#209500
0+
#210000
b10 3
b0 /
b1 4
b111101 ;
1+
#210500
0+
#211000
b11 3
bx ?
1+
#211500
0+
#212000
b1 3
b111110 1
1+
#212500
0+
#213000
b10 3
b1 /
b0 4
b111110 :
1+
#213500
0+
#214000
b11 3
bx >
1+
#214500
0+
#215000
b1 3
b111111 1
1+
#215500
0+
#216000
b10 3
b0 /
b1 4
b111111 ;
1+
#216500
0+
#217000
b11 3
bx ?
1+
#217500
0+
#218000
b1 3
b1000000 1
1+
#218500
0+
#219000
b10 3
b1 /
b0 4
b1000000 :
1+
#219500
0+
#220000
b11 3
bx >
1+
#220500
0+
#221000
b1 3
b1000001 1
1+
#221500
0+
#222000
b10 3
b0 /
b1 4
b1000001 ;
1+
#222500
0+
#223000
b11 3
bx ?
1+
#223500
0+
#224000
b1 3
b1000010 1
1+
#224500
0+
#225000
b10 3
b1 /
b0 4
b1000010 :
1+
#225500
0+
#226000
b11 3
bx >
1+
#226500
0+
#227000
b1 3
b1000011 1
1+
#227500
0+
#228000
b10 3
b0 /
b1 4
b1000011 ;
1+
#228500
0+
#229000
b11 3
bx ?
1+
#229500
0+
#230000
b1 3
b1000100 1
1+
#230500
0+
#231000
b10 3
b1 /
b0 4
b1000100 :
1+
#231500
0+
#232000
b11 3
bx >
1+
#232500
0+
#233000
b1 3
b1000101 1
1+
#233500
0+
#234000
b10 3
b0 /
b1 4
b1000101 ;
1+
#234500
0+
#235000
b11 3
bx ?
1+
#235500
0+
#236000
b1 3
b1000110 1
1+
#236500
0+
#237000
b10 3
b1 /
b0 4
b1000110 :
1+
#237500
0+
#238000
b11 3
bx >
1+
#238500
0+
#239000
b1 3
b1000111 1
1+
#239500
0+
#240000
b10 3
b0 /
b1 4
b1000111 ;
1+
#240500
0+
#241000
b11 3
bx ?
1+
#241500
0+
#242000
b1 3
b1001000 1
1+
#242500
0+
#243000
b10 3
b1 /
b0 4
b1001000 :
1+
#243500
0+
#244000
b11 3
bx >
1+
#244500
0+
#245000
b1 3
b1001001 1
1+
#245500
0+
#246000
b10 3
b0 /
b1 4
b1001001 ;
1+
#246500
0+
#247000
b11 3
bx ?
1+
#247500
0+
#248000
b1 3
b1001010 1
1+
#248500
0+
#249000
b10 3
b1 /
b0 4
b1001010 :
1+
#249500
0+
#250000
b11 3
bx >
1+
#250500
0+
#251000
b1 3
b1001011 1
1+
#251500
0+
#252000
b10 3
b0 /
b1 4
b1001011 ;
1+
#252500
0+
#253000
b11 3
bx ?
1+
#253500
0+
#254000
b1 3
b1001100 1
1+
#254500
0+
#255000
b10 3
b1 /
b0 4
b1001100 :
1+
#255500
0+
#256000
b11 3
bx >
1+
#256500
0+
#257000
b1 3
b1001101 1
1+
#257500
0+
#258000
b10 3
b0 /
b1 4
b1001101 ;
1+
#258500
0+
#259000
b11 3
bx ?
1+
#259500
0+
#260000
b1 3
b1001110 1
1+
#260500
0+
#261000
b10 3
b1 /
b0 4
b1001110 :
1+
#261500
0+
#262000
b11 3
bx >
1+
#262500
0+
#263000
b1 3
b1001111 1
1+
#263500
0+
#264000
b10 3
b0 /
b1 4
b1001111 ;
1+
#264500
0+
#265000
b11 3
bx ?
1+
#265500
0+
#266000
b1 3
b1010000 1
1+
#266500
0+
#267000
b10 3
b1 /
b0 4
b1010000 :
1+
#267500
0+
#268000
b11 3
bx >
1+
#268500
0+
#269000
b1 3
b1010001 1
1+
#269500
0+
#270000
b10 3
b0 /
b1 4
b1010001 ;
1+
#270500
0+
#271000
b11 3
bx ?
1+
#271500
0+
#272000
b1 3
b1010010 1
1+
#272500
0+
#273000
b10 3
b1 /
b0 4
b1010010 :
1+
#273500
0+
#274000
b11 3
bx >
1+
#274500
0+
#275000
b1 3
b1010011 1
1+
#275500
0+
#276000
b10 3
b0 /
b1 4
b1010011 ;
1+
#276500
0+
#277000
b11 3
bx ?
1+
#277500
0+
#278000
b1 3
b1010100 1
1+
#278500
0+
#279000
b10 3
b1 /
b0 4
b1010100 :
1+
#279500
0+
#280000
b11 3
bx >
1+
#280500
0+
#281000
b1 3
b1010101 1
1+
#281500
0+
#282000
b10 3
b0 /
b1 4
b1010101 ;
1+
#282500
0+
#283000
b11 3
bx ?
1+
#283500
0+
#284000
b1 3
b1010110 1
1+
#284500
0+
#285000
b10 3
b1 /
b0 4
b1010110 :
1+
#285500
0+
#286000
b11 3
bx >
1+
#286500
0+
#287000
b1 3
b1010111 1
1+
#287500
0+
#288000
b10 3
b0 /
b1 4
b1010111 ;
1+
#288500
0+
#289000
b11 3
bx ?
1+
#289500
0+
#290000
b1 3
b1011000 1
1+
#290500
0+
#291000
b10 3
b1 /
b0 4
b1011000 :
1+
#291500
0+
#292000
b11 3
bx >
1+
#292500
0+
#293000
b1 3
b1011001 1
1+
#293500
0+
#294000
b10 3
b0 /
b1 4
b1011001 ;
1+
#294500
0+
#295000
b11 3
bx ?
1+
#295500
0+
#296000
b1 3
b1011010 1
1+
#296500
0+
#297000
b10 3
b1 /
b0 4
b1011010 :
1+
#297500
0+
#298000
b11 3
bx >
1+
#298500
0+
#299000
b1 3
b1011011 1
1+
#299500
0+
#300000
b10 3
b0 /
b1 4
b1011011 ;
1+
#300500
0+
#301000
b11 3
bx ?
1+
#301500
0+
#302000
b1 3
b1011100 1
1+
#302500
0+
#303000
b10 3
b1 /
b0 4
b1011100 :
1+
#303500
0+
#304000
b11 3
bx >
1+
#304500
0+
#305000
b1 3
b1011101 1
1+
#305500
0+
#306000
b10 3
b0 /
b1 4
b1011101 ;
1+
#306500
0+
#307000
b11 3
bx ?
1+
#307500
0+
#308000
b1 3
b1011110 1
1+
#308500
0+
#309000
b10 3
b1 /
b0 4
b1011110 :
1+
#309500
0+
#310000
b11 3
bx >
1+
#310500
0+
#311000
b1 3
b1011111 1
1+
#311500
0+
#312000
b10 3
b0 /
b1 4
b1011111 ;
1+
#312500
0+
#313000
b11 3
bx ?
1+
#313500
0+
#314000
b1 3
b1100000 1
1+
#314500
0+
#315000
b10 3
b1 /
b0 4
b1100000 :
1+
#315500
0+
#316000
b11 3
bx >
1+
#316500
0+
#317000
b1 3
b1100001 1
1+
#317500
0+
#318000
b10 3
b0 /
b1 4
b1100001 ;
1+
#318500
0+
#319000
b11 3
bx ?
1+
#319500
0+
#320000
b1 3
b1100010 1
1+
#320500
0+
#321000
b10 3
b1 /
b0 4
b1100010 :
1+
#321500
0+
#322000
b11 3
bx >
1+
#322500
0+
#323000
b1 3
b1100011 1
1+
#323500
0+
#324000
b10 3
b0 /
b1 4
b1100011 ;
1+
#324500
0+
#325000
b11 3
bx ?
1+
#325500
0+
#326000
b1 3
b1100100 1
1+
#326500
0+
#327000
b10 3
b1 /
b0 4
b1100100 :
1+
#327500
0+
#328000
b11 3
bx >
1+
#328500
0+
#329000
b1 3
b1100101 1
1+
#329500
0+
#330000
b10 3
b0 /
b1 4
b1100101 ;
1+
#330500
0+
#331000
b11 3
bx ?
1+
#331500
0+
#332000
b1 3
b1100110 1
1+
#332500
0+
#333000
b10 3
b1 /
b0 4
b1100110 :
1+
#333500
0+
#334000
b11 3
bx >
1+
#334500
0+
#335000
b1 3
b1100111 1
1+
#335500
0+
#336000
b10 3
b0 /
b1 4
b1100111 ;
1+
#336500
0+
#337000
b11 3
bx ?
1+
#337500
0+
#338000
b1 3
b1101000 1
1+
#338500
0+
#339000
b10 3
b1 /
b0 4
b1101000 :
1+
#339500
0+
#340000
b11 3
bx >
1+
#340500
0+
#341000
b1 3
b1101001 1
1+
#341500
0+
#342000
b10 3
b0 /
b1 4
b1101001 ;
1+
#342500
0+
#343000
b11 3
bx ?
1+
#343500
0+
#344000
b1 3
b1101010 1
1+
#344500
0+
#345000
b10 3
b1 /
b0 4
b1101010 :
1+
#345500
0+
#346000
b11 3
bx >
1+
#346500
0+
#347000
b1 3
b1101011 1
1+
#347500
0+
#348000
b10 3
b0 /
b1 4
b1101011 ;
1+
#348500
0+
#349000
b11 3
bx ?
1+
#349500
0+
#350000
b1 3
b1101100 1
1+
#350500
0+
#351000
b10 3
b1 /
b0 4
b1101100 :
1+
#351500
0+
#352000
b11 3
bx >
1+
#352500
0+
#353000
b1 3
b1101101 1
1+
#353500
0+
#354000
b10 3
b0 /
b1 4
b1101101 ;
1+
#354500
0+
#355000
b11 3
bx ?
1+
#355500
0+
#356000
b1 3
b1101110 1
1+
#356500
0+
#357000
b10 3
b1 /
b0 4
b1101110 :
1+
#357500
0+
#358000
b11 3
bx >
1+
#358500
0+
#359000
b1 3
b1101111 1
1+
#359500
0+
#360000
b10 3
b0 /
b1 4
b1101111 ;
1+
#360500
0+
#361000
b11 3
bx ?
1+
#361500
0+
#362000
b1 3
b1110000 1
1+
#362500
0+
#363000
b10 3
b1 /
b0 4
b1110000 :
1+
#363500
0+
#364000
b11 3
bx >
1+
#364500
0+
#365000
b1 3
b1110001 1
1+
#365500
0+
#366000
b10 3
b0 /
b1 4
b1110001 ;
1+
#366500
0+
#367000
b11 3
bx ?
1+
#367500
0+
#368000
b1 3
b1110010 1
1+
#368500
0+
#369000
b10 3
b1 /
b0 4
b1110010 :
1+
#369500
0+
#370000
b11 3
bx >
1+
#370500
0+
#371000
b1 3
b1110011 1
1+
#371500
0+
#372000
b10 3
b0 /
b1 4
b1110011 ;
1+
#372500
0+
#373000
b11 3
bx ?
1+
#373500
0+
#374000
b1 3
b1110100 1
1+
#374500
0+
#375000
b10 3
b1 /
b0 4
b1110100 :
1+
#375500
0+
#376000
b11 3
bx >
1+
#376500
0+
#377000
b1 3
b1110101 1
1+
#377500
0+
#378000
b10 3
b0 /
b1 4
b1110101 ;
1+
#378500
0+
#379000
b11 3
bx ?
1+
#379500
0+
#380000
b1 3
b1110110 1
1+
#380500
0+
#381000
b10 3
b1 /
b0 4
b1110110 :
1+
#381500
0+
#382000
b11 3
bx >
1+
#382500
0+
#383000
b1 3
b1110111 1
1+
#383500
0+
#384000
b10 3
b0 /
b1 4
b1110111 ;
1+
#384500
0+
#385000
b11 3
bx ?
1+
#385500
0+
#386000
b1 3
b1111000 1
1+
#386500
0+
#387000
b10 3
b1 /
b0 4
b1111000 :
1+
#387500
0+
#388000
b11 3
bx >
1+
#388500
0+
#389000
b1 3
b1111001 1
1+
#389500
0+
#390000
b10 3
b0 /
b1 4
b1111001 ;
1+
#390500
0+
#391000
b11 3
bx ?
1+
#391500
0+
#392000
b1 3
b1111010 1
1+
#392500
0+
#393000
b10 3
b1 /
b0 4
b1111010 :
1+
#393500
0+
#394000
b11 3
bx >
1+
#394500
0+
#395000
b1 3
b1111011 1
1+
#395500
0+
#396000
b10 3
b0 /
b1 4
b1111011 ;
1+
#396500
0+
#397000
b11 3
bx ?
1+
#397500
0+
#398000
b1 3
b1111100 1
1+
#398500
0+
#399000
b10 3
b1 /
b0 4
b1111100 :
1+
#399500
0+
#400000
b11 3
bx >
1+
#400500
0+
#401000
b1 3
b1111101 1
1+
#401500
0+
#402000
b10 3
b0 /
b1 4
b1111101 ;
1+
#402500
0+
#403000
b11 3
bx ?
1+
#403500
0+
#404000
b1 3
b1111110 1
1+
#404500
0+
#405000
b10 3
b1 /
b0 4
b1111110 :
1+
#405500
0+
#406000
b11 3
bx >
1+
#406500
0+
#407000
b1 3
b1111111 1
1+
#407500
0+
#408000
b10 3
b0 /
b1 4
b1111111 ;
1+
#408500
0+
#409000
b11 3
bx ?
1+
#409500
0+
#410000
b1 3
b10000000 1
1+
#410500
0+
#411000
b10 3
b1 /
b0 4
b10000000 :
1+
#411500
0+
#412000
b11 3
bx >
1+
#412500
0+
#413000
b1 3
b10000001 1
1+
#413500
0+
#414000
b10 3
b0 /
b1 4
b10000001 ;
1+
#414500
0+
#415000
b11 3
bx ?
1+
#415500
0+
#416000
b1 3
b10000010 1
1+
#416500
0+
#417000
b10 3
b1 /
b0 4
b10000010 :
1+
#417500
0+
#418000
b11 3
bx >
1+
#418500
0+
#419000
b1 3
b10000011 1
1+
#419500
0+
#420000
b10 3
b0 /
b1 4
b10000011 ;
1+
#420500
0+
#421000
b11 3
bx ?
1+
#421500
0+
#422000
b1 3
b10000100 1
1+
#422500
0+
#423000
b10 3
b1 /
b0 4
b10000100 :
1+
#423500
0+
#424000
b11 3
bx >
1+
#424500
0+
#425000
b1 3
b10000101 1
1+
#425500
0+
#426000
b10 3
b0 /
b1 4
b10000101 ;
1+
#426500
0+
#427000
b11 3
bx ?
1+
#427500
0+
#428000
b1 3
b10000110 1
1+
#428500
0+
#429000
b10 3
b1 /
b0 4
b10000110 :
1+
#429500
0+
#430000
b11 3
bx >
1+
#430500
0+
#431000
b1 3
b10000111 1
1+
#431500
0+
#432000
b10 3
b0 /
b1 4
b10000111 ;
1+
#432500
0+
#433000
b11 3
bx ?
1+
#433500
0+
#434000
b1 3
b10001000 1
1+
#434500
0+
#435000
b10 3
b1 /
b0 4
b10001000 :
1+
#435500
0+
#436000
b11 3
bx >
1+
#436500
0+
#437000
b1 3
b10001001 1
1+
#437500
0+
#438000
b10 3
b0 /
b1 4
b10001001 ;
1+
#438500
0+
#439000
b11 3
bx ?
1+
#439500
0+
#440000
b1 3
b10001010 1
1+
#440500
0+
#441000
b10 3
b1 /
b0 4
b10001010 :
1+
#441500
0+
#442000
b11 3
bx >
1+
#442500
0+
#443000
b1 3
b10001011 1
1+
#443500
0+
#444000
b10 3
b0 /
b1 4
b10001011 ;
1+
#444500
0+
#445000
b11 3
bx ?
1+
#445500
0+
#446000
b1 3
b10001100 1
1+
#446500
0+
#447000
b10 3
b1 /
b0 4
b10001100 :
1+
#447500
0+
#448000
b11 3
bx >
1+
#448500
0+
#449000
b1 3
b10001101 1
1+
#449500
0+
#450000
b10 3
b0 /
b1 4
b10001101 ;
1+
#450500
0+
#451000
b11 3
bx ?
1+
#451500
0+
#452000
b1 3
b10001110 1
1+
#452500
0+
#453000
b10 3
b1 /
b0 4
b10001110 :
1+
#453500
0+
#454000
b11 3
bx >
1+
#454500
0+
#455000
b1 3
b10001111 1
1+
#455500
0+
#456000
b10 3
b0 /
b1 4
b10001111 ;
1+
#456500
0+
#457000
b11 3
bx ?
1+
#457500
0+
#458000
b1 3
b10010000 1
1+
#458500
0+
#459000
b10 3
b1 /
b0 4
b10010000 :
1+
#459500
0+
#460000
b11 3
bx >
1+
#460500
0+
#461000
b1 3
b10010001 1
1+
#461500
0+
#462000
b10 3
b0 /
b1 4
b10010001 ;
1+
#462500
0+
#463000
b11 3
bx ?
1+
#463500
0+
#464000
b1 3
b10010010 1
1+
#464500
0+
