a7/cpu.vcd
$date
	Wed Apr 29 22:17:25 2015
$end
$version
	Icarus Verilog
$end
$timescale
	1ps
$end
$scope module main $end
$var wire 16 ! vb [15:0] $end
$var wire 16 " va [15:0] $end
$var wire 4 # rt [3:0] $end
$var wire 4 $ rb [3:0] $end
$var wire 4 % ra [3:0] $end
$var wire 4 & opcode [3:0] $end
$var wire 1 ' memReady $end
$var wire 16 ( memOut [15:0] $end
$var wire 16 ) memIn [15:0] $end
$var wire 16 * jjj [15:0] $end
$var wire 16 + ii [15:0] $end
$var wire 1 , cycle $end
$var wire 1 - clk $end
$var reg 16 . cache_addr [15:0] $end
$var reg 16 / cache_hit [15:0] $end
$var reg 1 0 clear $end
$var reg 16 1 i_cache_hit [15:0] $end
$var reg 16 2 i_write_location [15:0] $end
$var reg 16 3 inst [15:0] $end
$var reg 1 4 lru $end
$var reg 16 5 oldest_line [15:0] $end
$var reg 16 6 pc [15:0] $end
$var reg 16 7 r_from_cache [15:0] $end
$var reg 16 8 res [15:0] $end
$var reg 4 9 state [3:0] $end
$var reg 16 : write_location [15:0] $end
$var integer 32 ; i [31:0] $end
$var integer 32 < lp [31:0] $end
$upscope $end
$scope module main $end
$scope module i0 $end
$var wire 1 - clk $end
$var wire 16 = raddr [15:0] $end
$var wire 1 > readEnable $end
$var wire 1 ' ready $end
$var wire 16 ? rdata [15:0] $end
$var reg 16 @ counter [15:0] $end
$var reg 16 A ptr [15:0] $end
$upscope $end
$upscope $end
$scope module main $end
$var reg 16 B \cache_l0[0] [15:0] $end
$upscope $end
$scope module main $end
$var reg 16 C \cache_l1[0] [15:0] $end
$upscope $end
$scope module main $end
$var reg 16 D \cache_l2[0] [15:0] $end
$upscope $end
$scope module main $end
$var reg 16 E \cache_l3[0] [15:0] $end
$upscope $end
$scope module main $end
$var reg 16 F \cache_l0[1] [15:0] $end
$upscope $end
$scope module main $end
$var reg 16 G \cache_l1[1] [15:0] $end
$upscope $end
$scope module main $end
$var reg 16 H \cache_l2[1] [15:0] $end
$upscope $end
$scope module main $end
$var reg 16 I \cache_l3[1] [15:0] $end
$upscope $end
$scope module main $end
$var reg 16 J \cache_l0[2] [15:0] $end
$upscope $end
$scope module main $end
$var reg 16 K \cache_l1[2] [15:0] $end
$upscope $end
$scope module main $end
$var reg 16 L \cache_l2[2] [15:0] $end
$upscope $end
$scope module main $end
$var reg 16 M \cache_l3[2] [15:0] $end
$upscope $end
$scope module main $end
$var reg 16 N \cache_l0[3] [15:0] $end
$upscope $end
$scope module main $end
$var reg 16 O \cache_l1[3] [15:0] $end
$upscope $end
$scope module main $end
$var reg 16 P \cache_l2[3] [15:0] $end
$upscope $end
$scope module main $end
$var reg 16 Q \cache_l3[3] [15:0] $end
$upscope $end
$scope module main $end
$var reg 16 R \i_cache0[0] [15:0] $end
$upscope $end
$scope module main $end
$var reg 16 S \i_cache1[0] [15:0] $end
$upscope $end
$scope module main $end
$var reg 16 T \i_cache2[0] [15:0] $end
$upscope $end
$scope module main $end
$var reg 16 U \i_cache3[0] [15:0] $end
$upscope $end
$scope module main $end
$var reg 16 V \i_cache0[1] [15:0] $end
$upscope $end
$scope module main $end
$var reg 16 W \i_cache1[1] [15:0] $end
$upscope $end
$scope module main $end
$var reg 16 X \i_cache2[1] [15:0] $end
$upscope $end
$scope module main $end
$var reg 16 Y \i_cache3[1] [15:0] $end
$upscope $end
$scope module main $end
$var reg 16 Z \i_cache0[2] [15:0] $end
$upscope $end
$scope module main $end
$var reg 16 [ \i_cache1[2] [15:0] $end
$upscope $end
$scope module main $end
$var reg 16 \ \i_cache2[2] [15:0] $end
$upscope $end
$scope module main $end
$var reg 16 ] \i_cache3[2] [15:0] $end
$upscope $end
$enddefinitions $end
#0
$dumpvars
bx ]
bx \
bx [
bx Z
bx Y
bx X
bx W
bx V
b0 U
b0 T
b0 S
b0 R
b0 Q
b0 P
b0 O
b0 N
b0 M
b0 L
b0 K
b0 J
b0 I
b0 H
b0 G
b0 F
b0 E
b0 D
b0 C
b0 B
bx A
b0 @
bx ?
1>
b0 =
b11 <
b100 ;
b0 :
b0 9
bx 8
b0 7
b0 6
b0 5
04
bx 3
b0 2
b0 1
00
b0 /
bx .
1-
0,
b0xxxxxxxx +
b0xxxxxxxxxxxx *
b0 )
bx (
0'
bx &
bx %
bx $
bx #
bx "
bx !
$end
#500
0-
#1000
1,
bx )
bx =
0>
b1100100 @
b0 A
b1 9
1-
#1500
0-
#2000
0,
b10 9
b0 V
b1 R
b1100011 @
1-
#2500
0-
#3000
1,
b1100010 @
1-
#3500
0-
#4000
0,
b1100001 @
1-
#4500
0-
#5000
1,
b1100000 @
1-
#5500
0-
#6000
0,
b1011111 @
1-
#6500
0-
#7000
1,
b1011110 @
1-
#7500
0-
#8000
0,
b1011101 @
1-
#8500
0-
#9000
1,
b1011100 @
1-
#9500
0-
#10000
0,
b1011011 @
1-
#10500
0-
#11000
1,
b1011010 @
1-
#11500
0-
#12000
0,
b1011001 @
1-
#12500
0-
#13000
1,
b1011000 @
1-
#13500
0-
#14000
0,
b1010111 @
1-
#14500
0-
#15000
1,
b1010110 @
1-
#15500
0-
#16000
0,
b1010101 @
1-
#16500
0-
#17000
1,
b1010100 @
1-
#17500
0-
#18000
0,
b1010011 @
1-
#18500
0-
#19000
1,
b1010010 @
1-
#19500
0-
#20000
0,
b1010001 @
1-
#20500
0-
#21000
1,
b1010000 @
1-
#21500
0-
#22000
0,
b1001111 @
1-
#22500
0-
#23000
1,
b1001110 @
1-
#23500
0-
#24000
0,
b1001101 @
1-
#24500
0-
#25000
1,
b1001100 @
1-
#25500
0-
#26000
0,
b1001011 @
1-
#26500
0-
#27000
1,
b1001010 @
1-
#27500
0-
#28000
0,
b1001001 @
1-
#28500
0-
#29000
1,
b1001000 @
1-
#29500
0-
#30000
0,
b1000111 @
1-
#30500
0-
#31000
1,
b1000110 @
1-
#31500
0-
#32000
0,
b1000101 @
1-
#32500
0-
#33000
1,
b1000100 @
1-
#33500
0-
#34000
0,
b1000011 @
1-
#34500
0-
#35000
1,
b1000010 @
1-
#35500
0-
#36000
0,
b1000001 @
1-
#36500
0-
#37000
1,
b1000000 @
1-
#37500
0-
#38000
0,
b111111 @
1-
#38500
0-
#39000
1,
b111110 @
1-
#39500
0-
#40000
0,
b111101 @
1-
#40500
0-
#41000
1,
b111100 @
1-
#41500
0-
#42000
0,
b111011 @
1-
#42500
0-
#43000
1,
b111010 @
1-
#43500
0-
#44000
0,
b111001 @
1-
#44500
0-
#45000
1,
b111000 @
1-
#45500
0-
#46000
0,
b110111 @
1-
#46500
0-
#47000
1,
b110110 @
1-
#47500
0-
#48000
0,
b110101 @
1-
#48500
0-
#49000
1,
b110100 @
1-
#49500
0-
#50000
0,
b110011 @
1-
#50500
0-
#51000
1,
b110010 @
1-
#51500
0-
#52000
0,
b110001 @
1-
#52500
0-
#53000
1,
b110000 @
1-
#53500
0-
#54000
0,
b101111 @
1-
#54500
0-
#55000
1,
b101110 @
1-
#55500
0-
#56000
0,
b101101 @
1-
#56500
0-
#57000
1,
b101100 @
1-
#57500
0-
#58000
0,
b101011 @
1-
#58500
0-
#59000
1,
b101010 @
1-
#59500
0-
#60000
0,
b101001 @
1-
#60500
0-
#61000
1,
b101000 @
1-
#61500
0-
#62000
0,
b100111 @
1-
#62500
0-
#63000
1,
b100110 @
1-
#63500
0-
#64000
0,
b100101 @
1-
#64500
0-
#65000
1,
b100100 @
1-
#65500
0-
#66000
0,
b100011 @
1-
#66500
0-
#67000
1,
b100010 @
1-
#67500
0-
#68000
0,
b100001 @
1-
#68500
0-
#69000
1,
b100000 @
1-
#69500
0-
#70000
0,
b11111 @
1-
#70500
0-
#71000
1,
b11110 @
1-
#71500
0-
#72000
0,
b11101 @
1-
#72500
0-
#73000
1,
b11100 @
1-
#73500
0-
#74000
0,
b11011 @
1-
#74500
0-
#75000
1,
b11010 @
1-
#75500
0-
#76000
0,
b11001 @
1-
#76500
0-
#77000
1,
b11000 @
1-
#77500
0-
#78000
0,
b10111 @
1-
#78500
0-
#79000
1,
b10110 @
1-
#79500
0-
#80000
0,
b10101 @
1-
#80500
0-
#81000
1,
b10100 @
1-
#81500
0-
#82000
0,
b10011 @
1-
#82500
0-
#83000
1,
b10010 @
1-
#83500
0-
#84000
0,
b10001 @
1-
#84500
0-
#85000
1,
b10000 @
1-
#85500
0-
#86000
0,
b1111 @
1-
#86500
0-
#87000
1,
b1110 @
1-
#87500
0-
#88000
0,
b1101 @
1-
#88500
0-
#89000
1,
b1100 @
1-
#89500
0-
#90000
0,
b1011 @
1-
#90500
0-
#91000
1,
b1010 @
1-
#91500
0-
#92000
0,
b1001 @
1-
#92500
0-
#93000
1,
b1000 @
1-
#93500
0-
#94000
0,
b111 @
1-
#94500
0-
#95000
1,
b110 @
1-
#95500
0-
#96000
0,
b101 @
1-
#96500
0-
#97000
1,
b100 @
1-
#97500
0-
#98000
0,
b11 @
1-
#98500
0-
#99000
1,
b10 @
1-
#99500
0-
#100000
b0 (
b0 ?
0,
1'
b1 @
1-
#100500
0-
#101000
1,
bx (
bx ?
b0 &
b0 %
b0 $
b0 #
b0 *
b0 +
0'
b0 @
b11 9
b0 Z
b0 3
1-
#101500
0-
#102000
0,
b100 9
bx A
1-
#102500
0-
#103000
1,
b101 9
1-
#103500
0-
#104000
0,
b1010 9
b0 8
1-
#104500
0-
#105000
1,
b1 )
b1 =
1>
b0 9
b1 6
1-
#105500
0-
#106000
bx )
bx =
0>
0,
b1 9
b1100100 @
b1 A
1-
#106500
0-
#107000
1,
b1100011 @
b10 9
b1 2
b1 W
b1 S
1-
#107500
0-
#108000
0,
b1100010 @
1-
#108500
0-
#109000
1,
b1100001 @
1-
#109500
0-
#110000
0,
b1100000 @
1-
#110500
0-
#111000
1,
b1011111 @
1-
#111500
0-
#112000
0,
b1011110 @
1-
#112500
0-
#113000
1,
b1011101 @
1-
#113500
0-
#114000
0,
b1011100 @
1-
#114500
0-
#115000
1,
b1011011 @
1-
#115500
0-
#116000
0,
b1011010 @
1-
#116500
0-
#117000
1,
b1011001 @
1-
#117500
0-
#118000
0,
b1011000 @
1-
#118500
0-
#119000
1,
b1010111 @
1-
#119500
0-
#120000
0,
b1010110 @
1-
#120500
0-
#121000
1,
b1010101 @
1-
#121500
0-
#122000
0,
b1010100 @
1-
#122500
0-
#123000
1,
b1010011 @
1-
#123500
0-
#124000
0,
b1010010 @
1-
#124500
0-
#125000
1,
b1010001 @
1-
#125500
0-
#126000
0,
b1010000 @
1-
#126500
0-
#127000
1,
b1001111 @
1-
#127500
0-
#128000
0,
b1001110 @
1-
#128500
0-
#129000
1,
b1001101 @
1-
#129500
0-
#130000
0,
b1001100 @
1-
#130500
0-
#131000
1,
b1001011 @
1-
#131500
0-
#132000
0,
b1001010 @
1-
#132500
0-
#133000
1,
b1001001 @
1-
#133500
0-
#134000
0,
b1001000 @
1-
#134500
0-
#135000
1,
b1000111 @
1-
#135500
0-
#136000
0,
b1000110 @
1-
#136500
0-
#137000
1,
b1000101 @
1-
#137500
0-
#138000
0,
b1000100 @
1-
#138500
0-
#139000
1,
b1000011 @
1-
#139500
0-
#140000
0,
b1000010 @
1-
#140500
0-
#141000
1,
b1000001 @
1-
#141500
0-
#142000
0,
b1000000 @
1-
#142500
0-
#143000
1,
b111111 @
1-
#143500
0-
#144000
0,
b111110 @
1-
#144500
0-
#145000
1,
b111101 @
1-
#145500
0-
#146000
0,
b111100 @
1-
#146500
0-
#147000
1,
b111011 @
1-
#147500
0-
#148000
0,
b111010 @
1-
#148500
0-
#149000
1,
b111001 @
1-
#149500
0-
#150000
0,
b111000 @
1-
#150500
0-
#151000
1,
b110111 @
1-
#151500
0-
#152000
0,
b110110 @
1-
#152500
0-
#153000
1,
b110101 @
1-
#153500
0-
#154000
0,
b110100 @
1-
#154500
0-
#155000
1,
b110011 @
1-
#155500
0-
#156000
0,
b110010 @
1-
#156500
0-
#157000
1,
b110001 @
1-
#157500
0-
#158000
0,
b110000 @
1-
#158500
0-
#159000
1,
b101111 @
1-
#159500
0-
#160000
0,
b101110 @
1-
#160500
0-
#161000
1,
b101101 @
1-
#161500
0-
#162000
0,
b101100 @
1-
#162500
0-
#163000
1,
b101011 @
1-
#163500
0-
#164000
0,
b101010 @
1-
#164500
0-
#165000
1,
b101001 @
1-
#165500
0-
#166000
0,
b101000 @
1-
#166500
0-
#167000
1,
b100111 @
1-
#167500
0-
#168000
0,
b100110 @
1-
#168500
0-
#169000
1,
b100101 @
1-
#169500
0-
#170000
0,
b100100 @
1-
#170500
0-
#171000
1,
b100011 @
1-
#171500
0-
#172000
0,
b100010 @
1-
#172500
0-
#173000
1,
b100001 @
1-
#173500
0-
#174000
0,
b100000 @
1-
#174500
0-
#175000
1,
b11111 @
1-
#175500
0-
#176000
0,
b11110 @
1-
#176500
0-
#177000
1,
b11101 @
1-
#177500
0-
#178000
0,
b11100 @
1-
#178500
0-
#179000
1,
b11011 @
1-
#179500
0-
#180000
0,
b11010 @
1-
#180500
0-
#181000
1,
b11001 @
1-
#181500
0-
#182000
0,
b11000 @
1-
#182500
0-
#183000
1,
b10111 @
1-
#183500
0-
#184000
0,
b10110 @
1-
#184500
0-
#185000
1,
b10101 @
1-
#185500
0-
#186000
0,
b10100 @
1-
#186500
0-
#187000
1,
b10011 @
1-
#187500
0-
#188000
0,
b10010 @
1-
#188500
0-
#189000
1,
b10001 @
1-
#189500
0-
#190000
0,
b10000 @
1-
#190500
0-
#191000
1,
b1111 @
1-
#191500
0-
#192000
0,
b1110 @
1-
#192500
0-
#193000
1,
b1101 @
1-
#193500
0-
#194000
0,
b1100 @
1-
#194500
0-
#195000
1,
b1011 @
1-
#195500
0-
#196000
0,
b1010 @
1-
#196500
0-
#197000
1,
b1001 @
1-
#197500
0-
#198000
0,
b1000 @
1-
#198500
0-
#199000
1,
b111 @
1-
#199500
0-
#200000
0,
b110 @
1-
#200500
0-
#201000
1,
b101 @
1-
#201500
0-
#202000
0,
b100 @
1-
#202500
0-
#203000
1,
b11 @
1-
#203500
0-
#204000
0,
b10 @
1-
#204500
0-
#205000
1,
b1 (
b1 ?
1'
b1 @
1-
#205500
0-
#206000
b1 #
b1 *
bx (
bx ?
0,
b11 9
b1 [
b1 3
0'
b0 @
1-
#206500
0-
#207000
1,
bx A
b100 9
1-
#207500
0-
#208000
0,
b101 9
1-
#208500
0-
#209000
1,
b1010 9
1-
#209500
0-
#210000
b10 )
b10 =
1>
0,
b0 9
b10 6
1-
#210500
0-
#211000
1,
bx )
bx =
0>
b1100100 @
b10 A
b1 9
1-
#211500
0-
#212000
0,
b10 9
b10 2
b10 X
b1 T
b1100011 @
1-
#212500
0-
#213000
1,
b1100010 @
1-
#213500
0-
#214000
0,
b1100001 @
1-
#214500
0-
#215000
1,
b1100000 @
1-
#215500
0-
#216000
0,
b1011111 @
1-
#216500
0-
#217000
1,
b1011110 @
1-
#217500
0-
#218000
0,
b1011101 @
1-
#218500
0-
#219000
1,
b1011100 @
1-
#219500
0-
#220000
0,
b1011011 @
1-
#220500
0-
#221000
1,
b1011010 @
1-
#221500
0-
#222000
0,
b1011001 @
1-
#222500
0-
#223000
1,
b1011000 @
1-
#223500
0-
#224000
0,
b1010111 @
1-
#224500
0-
#225000
1,
b1010110 @
1-
#225500
0-
#226000
0,
b1010101 @
1-
#226500
0-
#227000
1,
b1010100 @
1-
#227500
0-
#228000
0,
b1010011 @
1-
#228500
0-
#229000
1,
b1010010 @
1-
#229500
0-
#230000
0,
b1010001 @
1-
#230500
0-
#231000
1,
b1010000 @
1-
#231500
0-
#232000
0,
b1001111 @
1-
#232500
0-
#233000
1,
b1001110 @
1-
#233500
0-
#234000
0,
b1001101 @
1-
#234500
0-
#235000
1,
b1001100 @
1-
#235500
0-
#236000
0,
b1001011 @
1-
#236500
0-
#237000
1,
b1001010 @
1-
#237500
0-
#238000
0,
b1001001 @
1-
#238500
0-
#239000
1,
b1001000 @
1-
#239500
0-
#240000
0,
b1000111 @
1-
#240500
0-
#241000
1,
b1000110 @
1-
#241500
0-
#242000
0,
b1000101 @
1-
#242500
0-
#243000
1,
b1000100 @
1-
#243500
0-
#244000
0,
b1000011 @
1-
#244500
0-
#245000
1,
b1000010 @
1-
#245500
0-
#246000
0,
b1000001 @
1-
#246500
0-
#247000
1,
b1000000 @
1-
#247500
0-
#248000
0,
b111111 @
1-
#248500
0-
#249000
1,
b111110 @
1-
#249500
0-
#250000
0,
b111101 @
1-
#250500
0-
#251000
1,
b111100 @
1-
#251500
0-
#252000
0,
b111011 @
1-
#252500
0-
#253000
1,
b111010 @
1-
#253500
0-
#254000
0,
b111001 @
1-
#254500
0-
#255000
1,
b111000 @
1-
#255500
0-
#256000
0,
b110111 @
1-
#256500
0-
#257000
1,
b110110 @
1-
#257500
0-
#258000
0,
b110101 @
1-
#258500
0-
#259000
1,
b110100 @
1-
#259500
0-
#260000
0,
b110011 @
1-
#260500
0-
#261000
1,
b110010 @
1-
#261500
0-
#262000
0,
b110001 @
1-
#262500
0-
#263000
1,
b110000 @
1-
#263500
0-
#264000
0,
b101111 @
1-
#264500
0-
#265000
1,
b101110 @
1-
#265500
0-
#266000
0,
b101101 @
1-
#266500
0-
#267000
1,
b101100 @
1-
#267500
0-
#268000
0,
b101011 @
1-
#268500
0-
#269000
1,
b101010 @
1-
#269500
0-
#270000
0,
b101001 @
1-
#270500
0-
#271000
1,
b101000 @
1-
#271500
0-
#272000
0,
b100111 @
1-
#272500
0-
#273000
1,
b100110 @
1-
#273500
0-
#274000
0,
b100101 @
1-
#274500
0-
#275000
1,
b100100 @
1-
#275500
0-
#276000
0,
b100011 @
1-
#276500
0-
#277000
1,
b100010 @
1-
#277500
0-
#278000
0,
b100001 @
1-
#278500
0-
#279000
1,
b100000 @
1-
#279500
0-
#280000
0,
b11111 @
1-
#280500
0-
#281000
1,
b11110 @
1-
#281500
0-
#282000
0,
b11101 @
1-
#282500
0-
#283000
1,
b11100 @
1-
#283500
0-
#284000
0,
b11011 @
1-
#284500
0-
#285000
1,
b11010 @
1-
#285500
0-
#286000
0,
b11001 @
1-
#286500
0-
#287000
1,
b11000 @
1-
#287500
0-
#288000
0,
b10111 @
1-
#288500
0-
#289000
1,
b10110 @
1-
#289500
0-
#290000
0,
b10101 @
1-
#290500
0-
#291000
1,
b10100 @
1-
#291500
0-
#292000
0,
b10011 @
1-
#292500
0-
#293000
1,
b10010 @
1-
#293500
0-
#294000
0,
b10001 @
1-
#294500
0-
#295000
1,
b10000 @
1-
#295500
0-
#296000
0,
b1111 @
1-
#296500
0-
#297000
1,
b1110 @
1-
#297500
0-
#298000
0,
b1101 @
1-
#298500
0-
#299000
1,
b1100 @
1-
#299500
0-
#300000
0,
b1011 @
1-
#300500
0-
#301000
1,
b1010 @
1-
#301500
0-
#302000
0,
b1001 @
1-
#302500
0-
#303000
1,
b1000 @
1-
#303500
0-
#304000
0,
b111 @
1-
#304500
0-
#305000
1,
b110 @
1-
#305500
0-
#306000
0,
b101 @
1-
#306500
0-
#307000
1,
b100 @
1-
#307500
0-
#308000
0,
b11 @
1-
#308500
0-
#309000
1,
b10 @
1-
#309500
0-
#310000
b10 (
b10 ?
0,
1'
b1 @
1-
#310500
0-
#311000
1,
bx (
bx ?
b10 #
b10 *
0'
b0 @
b11 9
b10 \
b10 3
1-
#311500
0-
#312000
0,
b100 9
bx A
1-
#312500
0-
#313000
1,
b101 9
1-
#313500
0-
#314000
0,
b1010 9
1-
#314500
0-
#315000
1,
b11 )
b11 =
1>
b0 9
b11 6
1-
#315500
0-
#316000
bx )
bx =
0>
0,
b1 9
b1100100 @
b11 A
1-
#316500
0-
#317000
1,
b1100011 @
b10 9
b11 2
b11 Y
b1 U
1-
#317500
0-
#318000
0,
b1100010 @
1-
#318500
0-
#319000
1,
b1100001 @
1-
#319500
0-
#320000
0,
b1100000 @
1-
#320500
0-
#321000
1,
b1011111 @
1-
#321500
0-
#322000
0,
b1011110 @
1-
#322500
0-
#323000
1,
b1011101 @
1-
#323500
0-
#324000
0,
b1011100 @
1-
#324500
0-
#325000
1,
b1011011 @
1-
#325500
0-
#326000
0,
b1011010 @
1-
#326500
0-
#327000
1,
b1011001 @
1-
#327500
0-
#328000
0,
b1011000 @
1-
#328500
0-
#329000
1,
b1010111 @
1-
#329500
0-
#330000
0,
b1010110 @
1-
#330500
0-
#331000
1,
b1010101 @
1-
#331500
0-
#332000
0,
b1010100 @
1-
#332500
0-
#333000
1,
b1010011 @
1-
#333500
0-
#334000
0,
b1010010 @
1-
#334500
0-
#335000
1,
b1010001 @
1-
#335500
0-
#336000
0,
b1010000 @
1-
#336500
0-
#337000
1,
b1001111 @
1-
#337500
0-
#338000
0,
b1001110 @
1-
#338500
0-
#339000
1,
b1001101 @
1-
#339500
0-
#340000
0,
b1001100 @
1-
#340500
0-
#341000
1,
b1001011 @
1-
#341500
0-
#342000
0,
b1001010 @
1-
#342500
0-
#343000
1,
b1001001 @
1-
#343500
0-
#344000
0,
b1001000 @
1-
#344500
0-
#345000
1,
b1000111 @
1-
#345500
0-
#346000
0,
b1000110 @
1-
#346500
0-
#347000
1,
b1000101 @
1-
#347500
0-
#348000
0,
b1000100 @
1-
#348500
0-
#349000
1,
b1000011 @
1-
#349500
0-
#350000
0,
b1000010 @
1-
#350500
0-
#351000
1,
b1000001 @
1-
#351500
0-
#352000
0,
b1000000 @
1-
#352500
0-
#353000
1,
b111111 @
1-
#353500
0-
#354000
0,
b111110 @
1-
#354500
0-
#355000
1,
b111101 @
1-
#355500
0-
#356000
0,
b111100 @
1-
#356500
0-
#357000
1,
b111011 @
1-
#357500
0-
#358000
0,
b111010 @
1-
#358500
0-
#359000
1,
b111001 @
1-
#359500
0-
#360000
0,
b111000 @
1-
#360500
0-
#361000
1,
b110111 @
1-
#361500
0-
#362000
0,
b110110 @
1-
#362500
0-
#363000
1,
b110101 @
1-
#363500
0-
#364000
0,
b110100 @
1-
#364500
0-
#365000
1,
b110011 @
1-
#365500
0-
#366000
0,
b110010 @
1-
#366500
0-
#367000
1,
b110001 @
1-
#367500
0-
#368000
0,
b110000 @
1-
#368500
0-
#369000
1,
b101111 @
1-
#369500
0-
#370000
0,
b101110 @
1-
#370500
0-
#371000
1,
b101101 @
1-
#371500
0-
#372000
0,
b101100 @
1-
#372500
0-
#373000
1,
b101011 @
1-
#373500
0-
#374000
0,
b101010 @
1-
#374500
0-
#375000
1,
b101001 @
1-
#375500
0-
#376000
0,
b101000 @
1-
#376500
0-
#377000
1,
b100111 @
1-
#377500
0-
#378000
0,
b100110 @
1-
#378500
0-
#379000
1,
b100101 @
1-
#379500
0-
#380000
0,
b100100 @
1-
#380500
0-
#381000
1,
b100011 @
1-
#381500
0-
#382000
0,
b100010 @
1-
#382500
0-
#383000
1,
b100001 @
1-
#383500
0-
#384000
0,
b100000 @
1-
#384500
0-
#385000
1,
b11111 @
1-
#385500
0-
#386000
0,
b11110 @
1-
#386500
0-
#387000
1,
b11101 @
1-
#387500
0-
#388000
0,
b11100 @
1-
#388500
0-
#389000
1,
b11011 @
1-
#389500
0-
#390000
0,
b11010 @
1-
#390500
0-
#391000
1,
b11001 @
1-
#391500
0-
#392000
0,
b11000 @
1-
#392500
0-
#393000
1,
b10111 @
1-
#393500
0-
#394000
0,
b10110 @
1-
#394500
0-
#395000
1,
b10101 @
1-
#395500
0-
#396000
0,
b10100 @
1-
#396500
0-
#397000
1,
b10011 @
1-
#397500
0-
#398000
0,
b10010 @
1-
#398500
0-
#399000
1,
b10001 @
1-
#399500
0-
#400000
0,
b10000 @
1-
#400500
0-
#401000
1,
b1111 @
1-
#401500
0-
#402000
0,
b1110 @
1-
#402500
0-
#403000
1,
b1101 @
1-
#403500
0-
#404000
0,
b1100 @
1-
#404500
0-
#405000
1,
b1011 @
1-
#405500
0-
#406000
0,
b1010 @
1-
#406500
0-
#407000
1,
b1001 @
1-
#407500
0-
#408000
0,
b1000 @
1-
#408500
0-
#409000
1,
b111 @
1-
#409500
0-
#410000
0,
b110 @
1-
#410500
0-
#411000
1,
b101 @
1-
#411500
0-
#412000
0,
b100 @
1-
#412500
0-
#413000
1,
b11 @
1-
#413500
0-
#414000
0,
b10 @
1-
#414500
0-
#415000
1,
b11 (
b11 ?
1'
b1 @
1-
#415500
0-
#416000
b11 #
b11 *
bx (
bx ?
0,
b11 9
b11 ]
b11 3
0'
b0 @
1-
#416500
0-
#417000
1,
bx A
b100 9
1-
#417500
0-
#418000
0,
b101 9
1-
#418500
0-
#419000
1,
b1010 9
1-
#419500
0-
#420000
b100 )
b100 =
1>
0,
b0 9
b100 6
1-
#420500
0-
#421000
1,
bx )
bx =
0>
b1100100 @
b100 A
b1 9
1-
#421500
0-
#422000
0,
b10 9
b1 5
b0 2
b100 V
b1100011 @
1-
#422500
0-
#423000
1,
b1100010 @
1-
#423500
0-
#424000
0,
b1100001 @
1-
#424500
0-
#425000
1,
b1100000 @
1-
#425500
0-
#426000
0,
b1011111 @
1-
#426500
0-
#427000
1,
b1011110 @
1-
#427500
0-
#428000
0,
b1011101 @
1-
#428500
0-
#429000
1,
b1011100 @
1-
#429500
0-
#430000
0,
b1011011 @
1-
#430500
0-
#431000
1,
b1011010 @
1-
#431500
0-
#432000
0,
b1011001 @
1-
#432500
0-
#433000
1,
b1011000 @
1-
#433500
0-
#434000
0,
b1010111 @
1-
#434500
0-
#435000
1,
b1010110 @
1-
#435500
0-
#436000
0,
b1010101 @
1-
#436500
0-
#437000
1,
b1010100 @
1-
#437500
0-
#438000
0,
b1010011 @
1-
#438500
0-
#439000
1,
b1010010 @
1-
#439500
0-
#440000
0,
b1010001 @
1-
#440500
0-
#441000
1,
b1010000 @
1-
#441500
0-
#442000
0,
b1001111 @
1-
#442500
0-
#443000
1,
b1001110 @
1-
#443500
0-
#444000
0,
b1001101 @
1-
#444500
0-
#445000
1,
b1001100 @
1-
#445500
0-
#446000
0,
b1001011 @
1-
#446500
0-
#447000
1,
b1001010 @
1-
#447500
0-
#448000
0,
b1001001 @
1-
#448500
0-
#449000
1,
b1001000 @
1-
#449500
0-
#450000
0,
b1000111 @
1-
#450500
0-
#451000
1,
b1000110 @
1-
#451500
0-
#452000
0,
b1000101 @
1-
#452500
0-
#453000
1,
b1000100 @
1-
#453500
0-
#454000
0,
b1000011 @
1-
#454500
0-
#455000
1,
b1000010 @
1-
#455500
0-
#456000
0,
b1000001 @
1-
#456500
0-
#457000
1,
b1000000 @
1-
#457500
0-
#458000
0,
b111111 @
1-
#458500
0-
#459000
1,
b111110 @
1-
#459500
0-
#460000
0,
b111101 @
1-
#460500
0-
#461000
1,
b111100 @
1-
#461500
0-
#462000
0,
b111011 @
1-
#462500
0-
#463000
1,
b111010 @
1-
#463500
0-
#464000
0,
b111001 @
1-
#464500
0-
#465000
1,
b111000 @
1-
#465500
0-
#466000
0,
b110111 @
1-
#466500
0-
#467000
1,
b110110 @
1-
#467500
0-
#468000
0,
b110101 @
1-
#468500
0-
#469000
1,
b110100 @
1-
#469500
0-
#470000
0,
b110011 @
1-
#470500
0-
#471000
1,
b110010 @
1-
#471500
0-
#472000
0,
b110001 @
1-
#472500
0-
#473000
1,
b110000 @
1-
#473500
0-
#474000
0,
b101111 @
1-
#474500
0-
#475000
1,
b101110 @
1-
#475500
0-
#476000
0,
b101101 @
1-
#476500
0-
#477000
1,
b101100 @
1-
#477500
0-
#478000
0,
b101011 @
1-
#478500
0-
#479000
1,
b101010 @
1-
#479500
0-
#480000
0,
b101001 @
1-
#480500
0-
#481000
1,
b101000 @
1-
#481500
0-
#482000
0,
b100111 @
1-
#482500
0-
#483000
1,
b100110 @
1-
#483500
0-
#484000
0,
b100101 @
1-
#484500
0-
#485000
1,
b100100 @
1-
#485500
0-
#486000
0,
b100011 @
1-
#486500
0-
#487000
1,
b100010 @
1-
#487500
0-
#488000
0,
b100001 @
1-
#488500
0-
#489000
1,
b100000 @
1-
#489500
0-
#490000
0,
b11111 @
1-
#490500
0-
#491000
1,
b11110 @
1-
#491500
0-
#492000
0,
b11101 @
1-
#492500
0-
#493000
1,
b11100 @
1-
#493500
0-
#494000
0,
b11011 @
1-
#494500
0-
#495000
1,
b11010 @
1-
#495500
0-
#496000
0,
b11001 @
1-
#496500
0-
#497000
1,
b11000 @
1-
#497500
0-
#498000
0,
b10111 @
1-
#498500
0-
#499000
1,
b10110 @
1-
#499500
0-
#500000
0,
b10101 @
1-
#500500
0-
#501000
1,
b10100 @
1-
#501500
0-
#502000
0,
b10011 @
1-
#502500
0-
#503000
1,
b10010 @
1-
#503500
0-
#504000
0,
b10001 @
1-
#504500
0-
#505000
1,
b10000 @
1-
#505500
0-
#506000
0,
b1111 @
1-
#506500
0-
#507000
1,
b1110 @
1-
#507500
0-
#508000
0,
b1101 @
1-
#508500
0-
#509000
1,
b1100 @
1-
#509500
0-
#510000
0,
b1011 @
1-
#510500
0-
#511000
1,
b1010 @
1-
#511500
0-
#512000
0,
b1001 @
1-
#512500
0-
#513000
1,
b1000 @
1-
#513500
0-
#514000
0,
b111 @
1-
#514500
0-
#515000
1,
b110 @
1-
#515500
0-
#516000
0,
b101 @
1-
#516500
0-
#517000
1,
b100 @
1-
#517500
0-
#518000
0,
b11 @
1-
#518500
0-
#519000
1,
b10 @
1-
#519500
0-
#520000
b101000000001111 (
b101000000001111 ?
0,
1'
b1 @
1-
#520500
0-
#521000
1,
bx (
bx ?
b101 &
b1111 #
b1111 *
0'
b0 @
b11 9
b101000000001111 Z
b101000000001111 3
1-
#521500
0-
#522000
0,
b100 9
bx A
1-
#522500
0-
#523000
1,
b101 9
1-
#523500
0-
#524000
0,
b1011 9
1-
#524500
0-
#525000
1,
b1100 9
1-
