a6/cpu.vcd
$date
	Sun Mar  8 23:45:47 2015
$end
$version
	Icarus Verilog
$end
$timescale
	1ps
$end
$scope module main $end
$var wire 1 ! begin_store $end
$var wire 1 " d_flush $end
$var wire 1 # d_stall $end
$var wire 1 $ d_value $end
$var wire 1 % l_flush $end
$var wire 16 & l_target [15:0] $end
$var wire 1 ' r_flush $end
$var wire 16 ( r_target [15:0] $end
$var wire 1 ) w_flush $end
$var wire 16 * w_target [15:0] $end
$var wire 1 + write_valid $end
$var wire 1 , x_flush $end
$var wire 16 - x_vb [15:0] $end
$var wire 16 . x_va [15:0] $end
$var wire 16 / x_target [15:0] $end
$var wire 16 0 x_result [15:0] $end
$var wire 1 1 write_enabled $end
$var wire 16 2 w_output [15:0] $end
$var wire 16 3 w_memOut [15:0] $end
$var wire 1 4 w_halt $end
$var wire 4 5 target [3:0] $end
$var wire 1 6 storing $end
$var wire 1 7 ren1 $end
$var wire 1 8 ren0 $end
$var wire 4 9 rb_val [3:0] $end
$var wire 4 : ra_val [3:0] $end
$var wire 16 ; next_pc [15:0] $end
$var wire 1 < mem_writeEnable $end
$var wire 16 = mem_writeData [15:0] $end
$var wire 16 > mem_writeAddress [15:0] $end
$var wire 16 ? memOut [15:0] $end
$var wire 16 @ d_target [15:0] $end
$var wire 1 A d_isJmp $end
$var wire 16 B d_inst [15:0] $end
$var wire 8 C d_RS [7:0] $end
$var wire 1 D clk $end
$var reg 1 E counter_delay $end
$var reg 1 F counter_delay2 $end
$var reg 16 G d_pc [15:0] $end
$var reg 16 H d_savedInst [15:0] $end
$var reg 1 I d_useSaved $end
$var reg 1 J d_valid $end
$var reg 16 K f_pc [15:0] $end
$var reg 1 L f_valid $end
$var reg 16 M fowarding_bitmask [15:0] $end
$var reg 16 N l_inst [15:0] $end
$var reg 16 O l_pc [15:0] $end
$var reg 16 P l_result [15:0] $end
$var reg 16 Q l_va [15:0] $end
$var reg 1 R l_valid $end
$var reg 16 S l_vb [15:0] $end
$var reg 16 T r_inst [15:0] $end
$var reg 16 U r_pc [15:0] $end
$var reg 1 V r_valid $end
$var reg 16 W store_counter [15:0] $end
$var reg 16 X tail_end [15:0] $end
$var reg 16 Y w_inst [15:0] $end
$var reg 16 Z w_pc [15:0] $end
$var reg 16 [ w_result [15:0] $end
$var reg 16 \ w_va [15:0] $end
$var reg 1 ] w_valid $end
$var reg 16 ^ w_vb [15:0] $end
$var reg 16 _ x_inst [15:0] $end
$var reg 16 ` x_pc [15:0] $end
$var reg 1 a x_valid $end
$upscope $end
$enddefinitions $end
#0
$dumpvars
0a
bx `
bx _
bx ^
0]
bx \
bx [
bx Z
bx Y
bx X
b0 W
0V
bx U
bx T
bx S
0R
bx Q
bx P
bx O
bx N
b0 M
0L
bx K
0J
0I
bx H
bx G
0F
0E
1D
bx C
bx B
0A
bx @
bx ?
bx >
bx =
0<
b0 ;
bx :
bx 9
08
07
06
bx 5
04
bx 3
bx 2
01
bx 0
bx /
bx .
bx -
0,
z+
bx *
0)
bx (
0'
bx &
0%
x$
0#
0"
0!
$end
#500
0D
#1000
b1 ;
b0 K
1L
1D
#1500
0D
#2000
b10 ;
0$
b0 :
b0 9
b0 C
b0 B
b0 G
1J
b1 K
b0 ?
1D
#2500
0D
#3000
b11 ;
b1 9
b10001 C
b100000000010001 B
1$
b100000000010001 ?
b1 M
b0 T
b0 U
1V
b110 X
b0 H
b1 G
b10 K
1D
#3500
0D
#4000
b0 0
b100 ;
b0 (
b0 /
b10 9
b100010 C
b100010 B
b0 _
b0 `
1a
b100000000010001 T
b1 U
b111 X
b100000000010001 H
b10 G
b11 K
b100010 ?
1D
#4500
0D
#5000
b101 ;
b1 0
b1 9
b10011 C
b100000000010011 B
b10 (
b10 /
b100000000010011 ?
b101 M
b0 P
b0 N
b0 O
1R
b100000000010001 _
b1 `
b100010 T
b10 U
b1000 X
b100010 H
b11 G
b100 K
1D
#5500
0D
#6000
11
b110 ;
b10 0
b100 9
b1000100 C
b0 2
b0 5
b100 (
b100 /
b1000100 B
b0 [
b0 Y
b0 &
b0 *
b0 Z
1]
b1 P
b100000000010001 N
b1 O
b100010 _
b10 `
b100000000010011 T
b11 U
b1001 X
b100000000010011 H
b100 G
b101 K
b0 3
b1000100 ?
1D
#6500
0D
#7000
18
17
1#
11
b110 ;
b1 0
b1 :
b10 9
b100010 C
b1000100100010 B
b100000000010001 2
b1 5
b110 (
b110 /
b100000000010001 3
b1000100100010 ?
b10100 M
b1 [
b100000000010001 Y
b1 &
b1 *
b1 Z
b10 P
b100010 N
b10 O
b100000000010011 _
b11 `
b1000100 T
b100 U
b1010 X
b1000100 H
b101 G
b110 K
1D
#7500
0D
#8000
b100 0
b10 5
b1000 (
b1000 /
b10 2
b10 [
b100010 Y
b10 &
b10 *
b10 Z
b1 P
b100000000010011 N
b11 O
b1000100 _
b100 `
b1000100100010 T
b101 U
0V
b1011 X
b1000100100010 H
1I
b100010 3
b10000000001000 ?
1D
#8500
0D
#9000
b111 ;
11
bx 0
0#
0$
b100000000010001 2
b11 5
b111 (
b111 /
b100000000010001 3
b10000 M
b1 [
b100000000010011 Y
b11 &
b11 *
b11 Z
b100 P
b1000100 N
b100 O
b1000100100010 _
b101 `
0a
1D
#9500
0D
#10000
08
07
b1000 @
b1000 ;
1"
0#
1A
b0 :
b0 9
b1000 C
b100 5
b10000000001000 B
b100 2
b100 [
b1000100 Y
b100 &
b100 *
b100 Z
bx P
b1000100100010 N
b101 O
0R
1V
0I
b110 G
b111 K
b100000000010001 .
b1000100 3
1D
#10500
0D
#11000
01
b100000000010011 0
bx @
b1001 ;
b111 C
0"
b10000000000111 B
bx 2
b10 5
0A
bx 3
b10000000000111 ?
b10 -
b0 M
bx [
b1000100100010 Y
b101 &
b101 *
b101 Z
0]
b100000000010001 Q
1a
b10000000001000 T
b110 U
0V
b1100 X
b10000000001000 H
b111 G
0J
b1000 K
1D
#11500
0D
#12000
b1010 ;
bx 0
b1 9
b10001 C
b1110 (
b1110 /
b10001 B
b100000000010001 \
b10 S
b100000000010011 P
1R
b10000000001000 _
b110 `
0a
b10000000000111 T
b111 U
b1101 X
b10000000000111 H
b1000 G
1J
b1001 K
b10001 ?
1D
#12500
0D
#13000
18
17
11
1#
b1010 ;
b1 :
b1000100010001 B
1$
b100000000010011 2
b1110 (
b1110 /
b1000100010001 ?
b10 M
b10 ^
b100000000010011 [
1]
bx P
b10000000001000 N
b110 O
0R
b10000000000111 _
b111 `
b10001 T
b1000 U
1V
b1110 X
b10001 H
b1001 G
b1010 K
1D
#13500
0D
#14000
01
b1 0
bx 2
b1000 5
b1001 (
b1001 /
bx [
b10000000001000 Y
b110 &
b110 *
b110 Z
0]
b10000000000111 N
b111 O
b10001 _
b1000 `
1a
b1000100010001 T
b1001 U
0V
b1111 X
b1000100010001 H
1I
1D
#14500
0D
#15000
bx 0
b111 5
b1010 (
b1010 /
b100000000010001 -
b10000000000111 Y
b111 &
b111 *
b111 Z
b1 P
b10001 N
b1000 O
1R
b1000100010001 _
b1001 `
0a
1D
#15500
0D
#16000
11
b1 2
b1 5
b1 [
b10001 Y
b1000 &
b1000 *
b1000 Z
1]
b100000000010001 S
bx P
b1000100010001 N
b1001 O
0R
b100000000010001 3
1D
#16500
0D
#17000
b1011 ;
01
0#
0$
bx 2
bx 3
b0 M
b100000000010001 ^
bx [
b1000100010001 Y
b1001 &
b1001 *
b1001 Z
0]
1D
#17500
0D
#18000
b1011 ;
1#
1V
0I
b1010 G
b1011 K
1D
#18500
0D
#19000
b10 0
b101000100011111 ?
b1 -
b1 .
1a
b1010 U
0V
b10000 X
1I
1D
#19500
0D
#20000
bx 0
b1011 (
b1011 /
b1 S
b1 Q
b10 P
1R
b1010 `
0a
1D
#20500
0D
#21000
11
b10 2
b100010 3
b1 ^
b1 \
b10 [
1]
bx P
b1010 O
0R
1D
#21500
0D
#22000
b1100 ;
01
0#
bx 2
bx [
b1010 &
b1010 *
b1010 Z
0]
bx 3
1D
#22500
0D
#23000
b1100 ;
1#
b11111 C
b101000100011111 B
1V
0I
b1011 G
b1100 K
1D
#23500
0D
#24000
b100 0
1a
b101000100011111 T
b1011 U
0V
b10001 X
b101000100011111 H
1I
b10 -
b10 .
b10001 ?
1D
#24500
0D
#25000
bx 0
b11010 (
b11010 /
b10 S
b10 Q
b100 P
1R
b101000100011111 _
b1011 `
0a
1D
#25500
0D
#26000
11
b100 2
b10 ^
b10 \
b100 [
1]
bx P
b101000100011111 N
b1011 O
0R
b1000100 3
1D
#26500
0D
#27000
b1101 ;
01
0#
bx 2
b1111 5
bx 3
bx [
b101000100011111 Y
b1011 &
b1011 *
b1011 Z
0]
1D
#27500
0D
#28000
08
07
b1110 ;
b0 :
b10001 C
b10001 B
1V
0I
b1100 G
b1101 K
1D
#28500
0D
#29000
b1111 ;
b1000 0
b1 :
b10100 C
b100000100010100 B
1$
b100000100010100 ?
b100 -
b100 .
b10 M
1a
b10001 T
b1100 U
b10010 X
b10001 H
b1101 G
b1110 K
1D
#29500
0D
#30000
18
17
b1111 ;
1#
b1 0
b100 9
b1000100 C
b1101 (
b1101 /
b101000101000100 B
b100 S
b100 Q
b1000 P
1R
b10001 _
b1100 `
b100000100010100 T
b1101 U
b10011 X
b100000100010100 H
b1110 G
b1111 K
b101000101000100 ?
1D
#30500
0D
#31000
11
b10001 0
b10001 2
b10001 (
b10001 /
b10001 3
b100 ^
b100 \
b1000 [
1]
b1 P
b10001 N
b1100 O
b100000100010100 _
b1101 `
b101000101000100 T
b1110 U
0V
b10100 X
b101000101000100 H
1I
1D
#31500
0D
#32000
bx 0
b1 5
b10010 (
b10010 /
b1 2
b1 [
b10001 Y
b1100 &
b1100 *
b1100 Z
b10001 P
b100000100010100 N
b1101 O
b101000101000100 _
b1110 `
0a
b100000000010001 3
1D
#32500
0D
#33000
11
0$
b10001 2
b100 5
b10001 3
b0 M
b10001 [
b100000100010100 Y
b1101 &
b1101 *
b1101 Z
bx P
b101000101000100 N
b1110 O
0R
1D
#33500
0D
#34000
01
b10000 ;
0#
bx 2
bx [
b101000101000100 Y
b1110 &
b1110 *
b1110 Z
0]
bx 3
1D
#34500
0D
#35000
b10000 ;
1#
b1 .
1V
0I
b1111 G
b10000 K
1D
#35500
0D
#36000
b10010 0
b1 Q
1a
b1111 U
0V
b10101 X
1I
b10001 -
b1010000010101 ?
1D
#36500
0D
#37000
bx 0
b10011 (
b10011 /
b1 \
b10001 S
b10010 P
1R
b1111 `
0a
1D
#37500
0D
#38000
11
b10010 2
b10001 ^
b10010 [
1]
bx P
b1111 O
0R
b10010 3
1D
#38500
0D
#39000
01
b10001 ;
0#
bx 2
bx 3
bx [
b1111 &
b1111 *
b1111 Z
0]
1D
#39500
0D
#40000
b10001 ;
1#
b100 :
b1 9
b10101 C
b1010000010101 B
1V
0I
b10000 G
b10001 K
1D
#40500
0D
#41000
b10011 0
b10001 ?
b10010 -
1a
b1010000010101 T
b10000 U
0V
b10110 X
b1010000010101 H
1I
1D
#41500
0D
#42000
bx 0
b10101 (
b10101 /
b10010 S
b10011 P
1R
b1010000010101 _
b10000 `
0a
b1 -
b10010 .
1D
#42500
0D
#43000
11
b10011 2
b10011 3
b10010 ^
b10011 [
1]
b1 S
b10010 Q
bx P
b1010000010101 N
b10000 O
0R
1D
#43500
0D
#44000
01
b10010 ;
0#
b101 5
bx 2
b1 ^
b10010 \
bx [
b1010000010101 Y
b10000 &
b10000 *
b10000 Z
0]
bx 3
1D
#44500
0D
#45000
08
07
b10011 ;
b0 :
b10001 C
b10001 B
1V
0I
b10001 G
b10010 K
1D
#45500
0D
#46000
b10100 ;
b10100 0
b10010 C
1$
b10010 B
b10 M
1a
b10001 T
b10001 U
b10111 X
b10001 H
b10010 G
b10011 K
b10011 .
b10010 ?
1D
#46500
0D
#47000
b10101 ;
b1 0
b10011 C
b10011 B
b10010 (
b10010 /
b10011 ?
b110 M
b10011 Q
b10100 P
1R
b10001 _
b10001 `
b10010 T
b10010 U
b11000 X
b10010 H
b10011 G
b10100 K
1D
#47500
0D
#48000
11
b10110 ;
0$
b0 9
b0 C
b10100 2
b10100 (
b10100 /
b0 B
b1110 M
b10011 \
b10100 [
1]
b1 P
b10001 N
b10001 O
b10010 _
b10010 `
b10011 T
b10011 U
b11001 X
b10011 H
b10100 G
b10101 K
b0 3
b0 ?
1D
#48500
0D
#49000
b10111 ;
b1 9
b10001 C
b10001 B
1$
b1 2
b1 5
b10110 (
b10110 /
b100000000010001 3
b10001 ?
b1111 M
b1 [
b10001 Y
b10001 &
b10001 *
b10001 Z
b10010 N
b10010 O
b10011 _
b10011 `
b0 T
b10100 U
b11010 X
b0 H
b10101 G
b10110 K
1D
#49500
0D
#50000
b11000 ;
b0 0
b1 :
b0 9
b10 C
b10 5
b10100 (
b10100 /
b100000010 B
b1101 M
b10010 Y
b10010 &
b10010 *
b10010 Z
b10011 N
b10011 O
b0 _
b10100 `
b10001 T
b10101 U
b11011 X
b10001 H
b10110 G
b10111 K
b100000010 ?
1D
#50500
0D
#51000
18
17
1#
b11000 ;
b1 0
b0 :
b10 9
b100011 C
b110000000100011 B
b11 5
b10110 (
b10110 /
b110000000100011 ?
b1001 M
b10011 Y
b10011 &
b10011 *
b10011 Z
b0 P
b0 N
b10100 O
b10001 _
b10101 `
b100000010 T
b10110 U
b11100 X
b100000010 H
b10111 G
b11000 K
1D
#51500
0D
#52000
b10000 0
b0 2
b0 5
b11000 (
b11000 /
b1 M
b0 [
b0 Y
b10100 &
b10100 *
b10100 Z
b1 P
b10001 N
b10101 O
b100000010 _
b10110 `
b110000000100011 T
b10111 U
0V
b11101 X
b110000000100011 H
1I
b0 3
b1000100000000 ?
1D
#52500
0D
#53000
bx 0
0$
b1 2
b1 5
b11010 (
b11010 /
b100000000010001 3
b0 .
b0 M
b1 [
b10001 Y
b10101 &
b10101 *
b10101 Z
b10000 P
b100000010 N
b10110 O
b110000000100011 _
b10111 `
0a
1D
#53500
0D
#54000
b10000 2
b10 5
b10000 [
b100000010 Y
b10110 &
b10110 *
b10110 Z
b0 Q
bx P
b110000000100011 N
b10111 O
0R
b1010000010101 3
1D
#54500
0D
#55000
b11001 ;
01
0#
bx 2
b11 5
bx 3
b0 \
bx [
b110000000100011 Y
b10111 &
b10111 *
b10111 Z
0]
1D
#55500
0D
#56000
18
17
b11010 ;
b1 :
b0 9
b0 C
b1000100000000 B
1V
0I
b11000 G
b11001 K
1D
#56500
0D
#57000
08
07
b10111 @
b10111 ;
1"
1A
b0 :
b1 9
b10111 C
0#
b10000000010111 B
b10000000010111 ?
b10000 -
1a
b1000100000000 T
b11000 U
b11110 X
b1000100000000 H
b11001 G
b11010 K
1D
#57500
0D
#58000
b1 0
bx @
b11000 ;
0"
b111 :
b111 9
b1110111 C
b11000 (
b11000 /
0A
b11101110111 B
b10000 S
1R
b1000100000000 _
b11000 `
b10000000010111 T
b11001 U
0V
b11111 X
b10000000010111 H
b11010 G
0J
b10111 K
b0 -
b1 .
b11101110111 ?
1D
#58500
0D
#59000
18
17
1#
b11000 ;
bx 0
b0 :
b10 9
b100011 C
b110000000100011 B
b100000 (
b100000 /
b110000000100011 ?
b10000 ^
1]
b0 S
b1 Q
b1 P
b1000100000000 N
b11000 O
b10000000010111 _
b11001 `
0a
b11101110111 T
b11010 U
b100000 X
b11101110111 H
b10111 G
1J
b11000 K
1D
#59500
0D
#60000
11
b1 2
b0 5
b100001 (
b100001 /
b0 ^
b1 \
b1 [
b1000100000000 Y
b11000 &
b11000 *
b11000 Z
bx P
b10000000010111 N
b11001 O
0R
b11101110111 _
b11010 `
b110000000100011 T
b10111 U
b11101 X
b110000000100011 H
1I
b100000000010001 3
b1000100000000 ?
1D
#60500
0D
#61000
b11001 ;
01
0#
bx 2
b111 5
b11010 (
b11010 /
bx 3
b10000 -
b0 .
bx [
b10000000010111 Y
b11001 &
b11001 *
b11001 Z
0]
b11101110111 N
b11010 O
b110000000100011 _
b10111 `
1D
#61500
0D
#62000
18
17
b11010 ;
b1 :
b0 9
b0 C
b1000100000000 B
b11101110111 Y
b11010 &
b11010 *
b11010 Z
b10000 S
b0 Q
b110000000100011 N
b10111 O
1V
0I
b11000 G
b11001 K
1D
#62500
0D
#63000
08
07
b10111 @
b10111 ;
1"
1A
b0 :
b1 9
b10111 C
0#
b10000000010111 B
b11 5
b10000000010111 ?
b1 .
b10000 ^
b0 \
b110000000100011 Y
b10111 &
b10111 *
b10111 Z
1a
b1000100000000 T
b11000 U
b11110 X
b1000100000000 H
b11001 G
b11010 K
1D
#63500
0D
#64000
0"
b11000 ;
b10 0
bx @
0'
0,
b111 :
b111 9
b1110111 C
b11000 (
b11000 /
0A
b11101110111 B
b1 Q
1R
b1000100000000 _
b11000 `
b10000000010111 T
b11001 U
0V
b11111 X
b10000000010111 H
b11010 G
0J
b10111 K
b1 -
b11101110111 ?
1D
#64500
0D
#65000
18
17
1#
b11000 ;
bx 0
b0 :
b10 9
b100011 C
b110000000100011 B
b100000 (
b100000 /
b110000000100011 ?
b1 \
1]
b1 S
b10 P
b1000100000000 N
b11000 O
b10000000010111 _
b11001 `
0a
b11101110111 T
b11010 U
b100000 X
b11101110111 H
b10111 G
1J
b11000 K
1D
#65500
0D
#66000
11
b10 2
b0 5
b100001 (
b100001 /
b1 ^
b10 [
b1000100000000 Y
b11000 &
b11000 *
b11000 Z
bx P
b10000000010111 N
b11001 O
0R
b11101110111 _
b11010 `
b110000000100011 T
b10111 U
b11101 X
b110000000100011 H
1I
b100010 3
b1000100000000 ?
1D
#66500
0D
#67000
b11001 ;
01
0#
bx 2
b111 5
b11010 (
b11010 /
bx 3
b10000 -
bx [
b10000000010111 Y
b11001 &
b11001 *
b11001 Z
0]
b11101110111 N
b11010 O
b110000000100011 _
b10111 `
1D
#67500
0D
#68000
18
17
b11010 ;
b1 :
b0 9
b0 C
b1000100000000 B
b11101110111 Y
b11010 &
b11010 *
b11010 Z
b10000 S
b110000000100011 N
b10111 O
1V
0I
b11000 G
b11001 K
1D
#68500
0D
#69000
08
07
b10111 @
b10111 ;
1"
1A
b0 :
b1 9
b10111 C
0#
b10000000010111 B
b11 5
b10000000010111 ?
b10 .
b10000 ^
b110000000100011 Y
b10111 &
b10111 *
b10111 Z
1a
b1000100000000 T
b11000 U
b11110 X
b1000100000000 H
b11001 G
b11010 K
1D
#69500
0D
#70000
b11 0
bx @
b11000 ;
0"
b111 :
b111 9
b1110111 C
b11000 (
b11000 /
0A
b11101110111 B
b10 Q
1R
b1000100000000 _
b11000 `
b10000000010111 T
b11001 U
0V
b11111 X
b10000000010111 H
b11010 G
0J
b10111 K
b10 -
b1 .
b11101110111 ?
1D
#70500
0D
#71000
18
17
1#
b11000 ;
bx 0
b0 :
b10 9
b100011 C
b110000000100011 B
b100000 (
b100000 /
b110000000100011 ?
b10 \
1]
b10 S
b1 Q
b11 P
b1000100000000 N
b11000 O
b10000000010111 _
b11001 `
0a
b11101110111 T
b11010 U
b100000 X
b11101110111 H
b10111 G
1J
b11000 K
1D
#71500
0D
#72000
11
b11 2
b0 5
b100001 (
b100001 /
b10 ^
b1 \
b11 [
b1000100000000 Y
b11000 &
b11000 *
b11000 Z
bx P
b10000000010111 N
b11001 O
0R
b11101110111 _
b11010 `
b110000000100011 T
b10111 U
b11101 X
b110000000100011 H
1I
b100000000010011 3
b1000100000000 ?
1D
#72500
0D
#73000
b11001 ;
01
0#
bx 2
b111 5
b11010 (
b11010 /
bx 3
b10000 -
b10 .
bx [
b10000000010111 Y
b11001 &
b11001 *
b11001 Z
0]
b11101110111 N
b11010 O
b110000000100011 _
b10111 `
1D
#73500
0D
#74000
18
17
b11010 ;
b1 :
b0 9
b0 C
b1000100000000 B
b11101110111 Y
b11010 &
b11010 *
b11010 Z
b10000 S
b10 Q
b110000000100011 N
b10111 O
1V
0I
b11000 G
b11001 K
1D
#74500
0D
#75000
08
07
b10111 @
b10111 ;
1"
1A
b0 :
b1 9
b10111 C
0#
b10000000010111 B
b11 5
b10000000010111 ?
b11 .
b10000 ^
b10 \
b110000000100011 Y
b10111 &
b10111 *
b10111 Z
1a
b1000100000000 T
b11000 U
b11110 X
b1000100000000 H
b11001 G
b11010 K
1D
#75500
0D
#76000
b100 0
bx @
b11000 ;
0"
b111 :
b111 9
b1110111 C
b11000 (
b11000 /
0A
b11101110111 B
b11 Q
1R
b1000100000000 _
b11000 `
b10000000010111 T
b11001 U
0V
b11111 X
b10000000010111 H
b11010 G
0J
b10111 K
b11 -
b1 .
b11101110111 ?
1D
#76500
0D
#77000
18
17
1#
b11000 ;
bx 0
b0 :
b10 9
b100011 C
b110000000100011 B
b100000 (
b100000 /
b110000000100011 ?
b11 \
1]
b11 S
b1 Q
b100 P
b1000100000000 N
b11000 O
b10000000010111 _
b11001 `
0a
b11101110111 T
b11010 U
b100000 X
b11101110111 H
b10111 G
1J
b11000 K
1D
#77500
0D
#78000
11
b100 2
b0 5
b100001 (
b100001 /
b11 ^
b1 \
b100 [
b1000100000000 Y
b11000 &
b11000 *
b11000 Z
bx P
b10000000010111 N
b11001 O
0R
b11101110111 _
b11010 `
b110000000100011 T
b10111 U
b11101 X
b110000000100011 H
1I
b1000100 3
b1000100000000 ?
1D
#78500
0D
#79000
b11001 ;
01
0#
bx 2
b111 5
b11010 (
b11010 /
bx 3
b10000 -
b11 .
bx [
b10000000010111 Y
b11001 &
b11001 *
b11001 Z
0]
b11101110111 N
b11010 O
b110000000100011 _
b10111 `
1D
#79500
0D
#80000
18
17
b11010 ;
b1 :
b0 9
b0 C
b1000100000000 B
b11101110111 Y
b11010 &
b11010 *
b11010 Z
b10000 S
b11 Q
b110000000100011 N
b10111 O
1V
0I
b11000 G
b11001 K
1D
#80500
0D
#81000
08
07
b10111 @
b10111 ;
1"
1A
b0 :
b1 9
b10111 C
0#
b10000000010111 B
b11 5
b10000000010111 ?
b100 .
b10000 ^
b11 \
b110000000100011 Y
b10111 &
b10111 *
b10111 Z
1a
b1000100000000 T
b11000 U
b11110 X
b1000100000000 H
b11001 G
b11010 K
1D
#81500
0D
#82000
b101 0
bx @
b11000 ;
0"
b111 :
b111 9
b1110111 C
b11000 (
b11000 /
0A
b11101110111 B
b100 Q
1R
b1000100000000 _
b11000 `
b10000000010111 T
b11001 U
0V
b11111 X
b10000000010111 H
b11010 G
0J
b10111 K
b100 -
b1 .
b11101110111 ?
1D
#82500
0D
#83000
18
17
1#
b11000 ;
bx 0
b0 :
b10 9
b100011 C
b110000000100011 B
b100000 (
b100000 /
b110000000100011 ?
b100 \
1]
b100 S
b1 Q
b101 P
b1000100000000 N
b11000 O
b10000000010111 _
b11001 `
0a
b11101110111 T
b11010 U
b100000 X
b11101110111 H
b10111 G
1J
b11000 K
1D
#83500
0D
#84000
11
b101 2
b0 5
b100001 (
b100001 /
b100 ^
b1 \
b101 [
b1000100000000 Y
b11000 &
b11000 *
b11000 Z
bx P
b10000000010111 N
b11001 O
0R
b11101110111 _
b11010 `
b110000000100011 T
b10111 U
b11101 X
b110000000100011 H
1I
b1000100100010 3
b1000100000000 ?
1D
#84500
0D
#85000
b11001 ;
01
0#
bx 2
b111 5
b11010 (
b11010 /
bx 3
b10000 -
b100 .
bx [
b10000000010111 Y
b11001 &
b11001 *
b11001 Z
0]
b11101110111 N
b11010 O
b110000000100011 _
b10111 `
1D
#85500
0D
#86000
18
17
b11010 ;
b1 :
b0 9
b0 C
b1000100000000 B
b11101110111 Y
b11010 &
b11010 *
b11010 Z
b10000 S
b100 Q
b110000000100011 N
b10111 O
1V
0I
b11000 G
b11001 K
1D
#86500
0D
#87000
08
07
b10111 @
b10111 ;
1"
1A
b0 :
b1 9
b10111 C
0#
b10000000010111 B
b11 5
b10000000010111 ?
b101 .
b10000 ^
b100 \
b110000000100011 Y
b10111 &
b10111 *
b10111 Z
1a
b1000100000000 T
b11000 U
b11110 X
b1000100000000 H
b11001 G
b11010 K
1D
#87500
0D
#88000
b110 0
bx @
b11000 ;
0"
b111 :
b111 9
b1110111 C
b11000 (
b11000 /
0A
b11101110111 B
b101 Q
1R
b1000100000000 _
b11000 `
b10000000010111 T
b11001 U
0V
b11111 X
b10000000010111 H
b11010 G
0J
b10111 K
b101 -
b1 .
b11101110111 ?
1D
#88500
0D
#89000
18
17
1#
b11000 ;
bx 0
b0 :
b10 9
b100011 C
b110000000100011 B
b100000 (
b100000 /
b110000000100011 ?
b101 \
1]
b101 S
b1 Q
b110 P
b1000100000000 N
b11000 O
b10000000010111 _
b11001 `
0a
b11101110111 T
b11010 U
b100000 X
b11101110111 H
b10111 G
1J
b11000 K
1D
#89500
0D
#90000
11
b110 2
b0 5
b100001 (
b100001 /
b101 ^
b1 \
b110 [
b1000100000000 Y
b11000 &
b11000 *
b11000 Z
bx P
b10000000010111 N
b11001 O
0R
b11101110111 _
b11010 `
b110000000100011 T
b10111 U
b11101 X
b110000000100011 H
1I
b10000000001000 3
b1000100000000 ?
1D
#90500
0D
#91000
b11001 ;
01
0#
bx 2
b111 5
b11010 (
b11010 /
bx 3
b10000 -
b101 .
bx [
b10000000010111 Y
b11001 &
b11001 *
b11001 Z
0]
b11101110111 N
b11010 O
b110000000100011 _
b10111 `
1D
#91500
0D
#92000
18
17
b11010 ;
b1 :
b0 9
b0 C
b1000100000000 B
b11101110111 Y
b11010 &
b11010 *
b11010 Z
b10000 S
b101 Q
b110000000100011 N
b10111 O
1V
0I
b11000 G
b11001 K
1D
#92500
0D
#93000
08
07
b10111 @
b10111 ;
1"
1A
b0 :
b1 9
b10111 C
0#
b10000000010111 B
b11 5
b10000000010111 ?
b110 .
b10000 ^
b101 \
b110000000100011 Y
b10111 &
b10111 *
b10111 Z
1a
b1000100000000 T
b11000 U
b11110 X
b1000100000000 H
b11001 G
b11010 K
1D
#93500
0D
#94000
b111 0
bx @
b11000 ;
0"
b111 :
b111 9
b1110111 C
b11000 (
b11000 /
0A
b11101110111 B
b110 Q
1R
b1000100000000 _
b11000 `
b10000000010111 T
b11001 U
0V
b11111 X
b10000000010111 H
b11010 G
0J
b10111 K
b110 -
b1 .
b11101110111 ?
1D
#94500
0D
#95000
18
17
1#
b11000 ;
bx 0
b0 :
b10 9
b100011 C
b110000000100011 B
b100000 (
b100000 /
b110000000100011 ?
b110 \
1]
b110 S
b1 Q
b111 P
b1000100000000 N
b11000 O
b10000000010111 _
b11001 `
0a
b11101110111 T
b11010 U
b100000 X
b11101110111 H
b10111 G
1J
b11000 K
1D
#95500
0D
#96000
11
b111 2
b0 5
b100001 (
b100001 /
b110 ^
b1 \
b111 [
b1000100000000 Y
b11000 &
b11000 *
b11000 Z
bx P
b10000000010111 N
b11001 O
0R
b11101110111 _
b11010 `
b110000000100011 T
b10111 U
b11101 X
b110000000100011 H
1I
b10000000000111 3
b1000100000000 ?
1D
#96500
0D
#97000
b11001 ;
01
0#
bx 2
b111 5
b11010 (
b11010 /
bx 3
b10000 -
b110 .
bx [
b10000000010111 Y
b11001 &
b11001 *
b11001 Z
0]
b11101110111 N
b11010 O
b110000000100011 _
b10111 `
1D
#97500
0D
#98000
18
17
b11010 ;
b1 :
b0 9
b0 C
b1000100000000 B
b11101110111 Y
b11010 &
b11010 *
b11010 Z
b10000 S
b110 Q
b110000000100011 N
b10111 O
1V
0I
b11000 G
b11001 K
1D
#98500
0D
#99000
08
07
b10111 @
b10111 ;
1"
1A
b0 :
b1 9
b10111 C
0#
b10000000010111 B
b11 5
b10000000010111 ?
b111 .
b10000 ^
b110 \
b110000000100011 Y
b10111 &
b10111 *
b10111 Z
1a
b1000100000000 T
b11000 U
b11110 X
b1000100000000 H
b11001 G
b11010 K
1D
#99500
0D
#100000
b1000 0
bx @
b11000 ;
0"
b111 :
b111 9
b1110111 C
b11000 (
b11000 /
0A
b11101110111 B
b111 Q
1R
b1000100000000 _
b11000 `
b10000000010111 T
b11001 U
0V
b11111 X
b10000000010111 H
b11010 G
0J
b10111 K
b111 -
b1 .
b11101110111 ?
1D
#100500
0D
#101000
18
17
1#
b11000 ;
bx 0
b0 :
b10 9
b100011 C
b110000000100011 B
b100000 (
b100000 /
b110000000100011 ?
b111 \
1]
b111 S
b1 Q
b1000 P
b1000100000000 N
b11000 O
b10000000010111 _
b11001 `
0a
b11101110111 T
b11010 U
b100000 X
b11101110111 H
b10111 G
1J
b11000 K
1D
#101500
0D
#102000
11
b1000 2
b0 5
b100001 (
b100001 /
b111 ^
b1 \
b1000 [
b1000100000000 Y
b11000 &
b11000 *
b11000 Z
bx P
b10000000010111 N
b11001 O
0R
b11101110111 _
b11010 `
b110000000100011 T
b10111 U
b11101 X
b110000000100011 H
1I
b10001 3
b1000100000000 ?
1D
#102500
0D
#103000
b11001 ;
01
0#
bx 2
b111 5
b11010 (
b11010 /
bx 3
b10000 -
b111 .
bx [
b10000000010111 Y
b11001 &
b11001 *
b11001 Z
0]
b11101110111 N
b11010 O
b110000000100011 _
b10111 `
1D
#103500
0D
#104000
18
17
b11010 ;
b1 :
b0 9
b0 C
b1000100000000 B
b11101110111 Y
b11010 &
b11010 *
b11010 Z
b10000 S
b111 Q
b110000000100011 N
b10111 O
1V
0I
b11000 G
b11001 K
1D
#104500
0D
#105000
08
07
b10111 @
b10111 ;
1"
1A
b0 :
b1 9
b10111 C
0#
b10000000010111 B
b11 5
b10000000010111 ?
b1000 .
b10000 ^
b111 \
b110000000100011 Y
b10111 &
b10111 *
b10111 Z
1a
b1000100000000 T
b11000 U
b11110 X
b1000100000000 H
b11001 G
b11010 K
1D
#105500
0D
